<?xml version="1.0" encoding="UTF-8"?>
<svg width="130px" height="130px" viewBox="0 0 130 130" version="1.1" xmlns="http://www.w3.org/2000/svg" xmlns:xlink="http://www.w3.org/1999/xlink">
    <!-- Generator: Sketch 48.2 (47327) - http://www.bohemiancoding.com/sketch -->
    <title>Icon_128x128_Documents</title>
    <desc>Created with Sketch.</desc>
    <defs></defs>
    <g id="icon/modality/documents" stroke="none" stroke-width="1" fill="none" fill-rule="evenodd">
        <g id="Icon_128x128_Documents" transform="translate(1.000000, 1.000000)" stroke-width="1.76146789">
            <circle id="Oval" stroke="#FFFFFF" cx="63.706422" cy="63.706422" r="63.706422"></circle>
            <rect id="Rectangle-path" stroke="#FFFFFF" stroke-linecap="round" stroke-linejoin="round" x="33.1273394" y="34.8183486" width="52.1629358" height="68.3449541"></rect>
            <polyline id="Shape" stroke="#FFFFFF" stroke-linecap="round" stroke-linejoin="round" points="42.8154128 29.933211 42.8154128 25.4238532 94.9666055 25.4238532 94.9666055 93.7688073 90.4572477 93.7688073"></polyline>
            <rect id="Rectangle-path" stroke="#FF9B02" stroke-linecap="round" stroke-linejoin="round" x="40.4080734" y="49.9552294" width="11.2616514" height="16.9805505"></rect>
            <path d="M58.7155963,49.9552294 L78.0095413,49.9552294" id="Shape" stroke="#FFFFFF" stroke-linecap="round" stroke-linejoin="round"></path>
            <path d="M58.7155963,58.4689908 L78.0095413,58.4689908" id="Shape" stroke="#FFFFFF" stroke-linecap="round" stroke-linejoin="round"></path>
            <path d="M58.7155963,66.9944954 L78.0095413,66.9944954" id="Shape" stroke="#FFFFFF" stroke-linecap="round" stroke-linejoin="round"></path>
            <path d="M40.2788991,75.5082569 L78.0095413,75.5082569" id="Shape" stroke="#FFFFFF" stroke-linecap="round" stroke-linejoin="round"></path>
            <path d="M40.2788991,84.0337615 L78.0095413,84.0337615" id="Shape" stroke="#FFFFFF" stroke-linecap="round" stroke-linejoin="round"></path>
            <path d="M40.2788991,92.5475229 L78.0095413,92.5475229" id="Shape" stroke="#FFFFFF" stroke-linecap="round" stroke-linejoin="round"></path>
        </g>
    </g>
</svg>