<?xml version="1.0" encoding="UTF-8"?>
<svg width="180px" height="43px" viewBox="0 0 180 43" version="1.1" xmlns="http://www.w3.org/2000/svg" xmlns:xlink="http://www.w3.org/1999/xlink">
    <!-- Generator: Sketch 50.2 (55047) - http://www.bohemiancoding.com/sketch -->
    <title>AWS-logo-dark</title>
    <desc>Created with Sketch.</desc>
    <defs>
        <polygon id="path-1" points="0.054 0.6336 64.489062 0.6336 64.489062 42.246 0.054 42.246"></polygon>
    </defs>
    <g id="AWS-logo-dark" stroke="none" stroke-width="1" fill="none" fill-rule="evenodd">
        <g id="AWS-logo">
            <path d="M53.1342,20.7558 C53.7651,21.1122 54.6705,21.4281 55.8504,21.7017 C57.0294,21.9762 58.2372,22.1139 59.4711,22.1139 C60.678,22.1139 61.7895,21.9627 62.8047,21.6612 C63.819,21.3597 64.6902,20.9205 65.4174,20.3445 C66.1437,19.7685 66.7134,19.0755 67.1256,18.2664 C67.5369,17.4573 67.7421,16.5447 67.7421,15.5295 C67.7421,14.2947 67.3785,13.1976 66.6522,12.2373 C65.925,11.2779 64.7109,10.5237 63.0099,9.9747 L59.6772,8.9046 C58.4154,8.4933 57.5505,8.0604 57.0843,7.6086 C56.6181,7.1559 56.385,6.5997 56.385,5.9418 C56.385,4.9815 56.7558,4.2822 57.4956,3.843 C58.2372,3.4047 59.2794,3.1842 60.624,3.1842 C62.2962,3.1842 63.8055,3.4866 65.1501,4.0896 C65.5614,4.2822 65.8629,4.3776 66.0555,4.3776 C66.411,4.3776 66.5901,4.131 66.5901,3.6369 L66.5901,2.5263 C66.5901,2.1969 66.5217,1.9368 66.3849,1.7442 C66.2472,1.5525 66.0141,1.3608 65.6847,1.1682 C65.4381,1.0314 65.1087,0.8946 64.6974,0.7569 C64.2861,0.6201 63.8397,0.4959 63.36,0.3861 C62.8794,0.2772 62.3727,0.1881 61.8372,0.1188 C61.3026,0.0504 60.7743,0.0162 60.2532,0.0162 C59.2101,0.0162 58.2228,0.1539 57.2904,0.4275 C56.358,0.702 55.5417,1.107 54.8424,1.6416 C54.1422,2.1762 53.5797,2.8215 53.1549,3.5757 C52.7292,4.3308 52.5168,5.2011 52.5168,6.1884 C52.5168,7.4232 52.9083,8.5617 53.6895,9.6039 C54.4716,10.647 55.7271,11.4426 57.4551,11.9907 L60.8706,13.0608 C62.0226,13.4451 62.811,13.8564 63.2367,14.2947 C63.6615,14.7339 63.8739,15.2829 63.8739,15.9408 C63.8739,16.902 63.4689,17.6427 62.6607,18.1629 C61.8507,18.6849 60.7059,18.945 59.2245,18.945 C58.2912,18.945 57.3588,18.8487 56.4264,18.657 C55.4931,18.4653 54.6291,18.1908 53.8335,17.8335 C53.5869,17.7246 53.3871,17.6427 53.2368,17.5869 C53.0856,17.532 52.9425,17.505 52.8048,17.505 C52.4484,17.505 52.2702,17.7516 52.2702,18.2457 L52.2702,19.4391 C52.2702,19.6587 52.3179,19.8783 52.4142,20.097 C52.5096,20.3175 52.7499,20.5362 53.1342,20.7558" id="Fill-1" fill="#222931"></path>
            <path d="M16.0578,13.4721 C16.0578,14.2677 15.9822,14.9472 15.8319,15.5088 C15.6807,16.0713 15.4134,16.5726 15.03,17.0109 C14.3982,17.7246 13.6575,18.225 12.807,18.513 C11.9565,18.801 11.1474,18.945 10.3797,18.945 C9.3096,18.945 8.487,18.6642 7.9101,18.1017 C7.3341,17.5392 7.0461,16.7094 7.0461,15.6114 C7.0461,14.4324 7.4304,13.527 8.199,12.8961 C8.9667,12.2652 10.1322,11.9493 11.6964,11.9493 C12.4092,11.9493 13.1427,11.9979 13.8978,12.0933 C14.652,12.1896 15.372,12.3201 16.0578,12.4848 L16.0578,13.4721 Z M13.3632,9.3366 C12.4992,9.2133 11.6685,9.1512 10.8729,9.1512 C8.4591,9.1512 6.5385,9.7623 5.112,10.9827 C3.6855,12.2031 2.9727,13.815 2.9727,15.8175 C2.9727,17.7102 3.5487,19.2195 4.7007,20.3445 C5.8527,21.4695 7.4169,22.0311 9.3924,22.0311 C12.1626,22.0311 14.4666,20.9484 16.3053,18.7803 C16.5519,19.3023 16.7922,19.7613 17.0253,20.1591 C17.2584,20.5569 17.5392,20.9205 17.8686,21.249 C18.0882,21.4695 18.3213,21.5784 18.5679,21.5784 C18.7596,21.5784 18.9657,21.51 19.1853,21.3732 L20.6667,20.385 C20.9691,20.1663 21.1194,19.9323 21.1194,19.6857 C21.1194,19.521 21.0645,19.3428 20.9547,19.1511 C20.6262,18.5472 20.3715,17.9847 20.1942,17.4636 C20.0151,16.9425 19.926,16.2432 19.926,15.3648 L19.926,7.7112 C19.926,5.1327 19.2744,3.2049 17.9721,1.9296 C16.668,0.6534 14.6178,0.0162 11.8197,0.0162 C10.53,0.0162 9.3096,0.1674 8.1576,0.4689 C7.0056,0.7713 6.0174,1.1268 5.1948,1.539 C4.8654,1.7037 4.6458,1.8675 4.536,2.0322 C4.4262,2.1969 4.3713,2.4714 4.3713,2.8557 L4.3713,4.0077 C4.3713,4.5018 4.536,4.7484 4.8654,4.7484 C4.9482,4.7484 5.0715,4.7277 5.2353,4.6863 C5.4,4.6458 5.6745,4.5423 6.0588,4.3776 C6.8814,4.0491 7.7256,3.7809 8.5896,3.5757 C9.4536,3.3696 10.2969,3.267 11.1204,3.267 C12.9312,3.267 14.2065,3.6306 14.9472,4.3569 C15.6879,5.085 16.0578,6.3396 16.0578,8.1225 L16.0578,9.8505 C15.1254,9.6318 14.2272,9.4599 13.3632,9.3366 Z" id="Fill-2" fill="#222931"></path>
            <g id="Group-6">
                <mask id="mask-2" fill="white">
                    <use xlink:href="#path-1"></use>
                </mask>
                <g id="Clip-4"></g>
                <path d="M27.8685,20.3445 C28.0053,20.8107 28.17,21.1194 28.3617,21.2697 C28.5534,21.4209 28.8558,21.4965 29.2671,21.4965 L31.284,21.4965 C31.7223,21.4965 32.0373,21.4137 32.2299,21.249 C32.4216,21.0843 32.5728,20.7693 32.6826,20.3031 L36.3042,5.1597 L39.9663,20.3031 C40.0752,20.7693 40.2264,21.0843 40.419,21.249 C40.6107,21.4137 40.9266,21.4965 41.3649,21.4965 L43.3818,21.4965 C43.7931,21.4965 44.0946,21.4209 44.2872,21.2697 C44.4789,21.1194 44.6436,20.8107 44.7813,20.3445 L50.4594,2.1555 C50.5422,1.9089 50.5962,1.7172 50.6241,1.5795 C50.6511,1.4427 50.6655,1.3194 50.6655,1.2096 C50.6655,0.8253 50.4729,0.6336 50.0886,0.6336 L47.9079,0.6336 C47.4687,0.6336 47.16,0.7092 46.9827,0.8595 C46.8036,1.0107 46.6461,1.3194 46.5093,1.7856 L42.435,17.5455 L38.7315,1.7856 C38.6217,1.3194 38.4705,1.0107 38.2788,0.8595 C38.0871,0.7092 37.7712,0.6336 37.3329,0.6336 L35.4393,0.6336 C35.001,0.6336 34.6851,0.7092 34.4934,0.8595 C34.3008,1.0107 34.1496,1.3194 34.0407,1.7856 L30.3786,17.3403 L26.4276,1.7856 C26.2899,1.3194 26.1324,1.0107 25.9551,0.8595 C25.776,0.7092 25.4673,0.6336 25.029,0.6336 L22.7241,0.6336 C22.3398,0.6336 22.1481,0.8253 22.1481,1.2096 C22.1481,1.3743 22.2165,1.6893 22.3542,2.1555 L27.8685,20.3445" id="Fill-3" fill="#222931" mask="url(#mask-2)"></path>
                <path d="M62.7939,31.7394 C54.1143,35.4213 44.6814,37.2015 36.1008,37.2015 C23.3811,37.2015 11.0646,33.7122 1.1061,27.9162 C0.2349,27.4095 -0.4113,28.3032 0.3132,28.9584 C9.5436,37.2933 21.7422,42.3 35.2872,42.3 C44.9523,42.3 56.1762,39.2616 63.9189,33.5484 C65.1996,32.6016 64.1025,31.1841 62.7939,31.7394" id="Fill-5" fill="#EC912D" mask="url(#mask-2)"></path>
            </g>
            <path d="M57.9069,28.5201 C57.2256,28.9989 57.3426,29.6595 58.0986,29.5686 C60.5952,29.2698 66.15,28.6029 67.1409,29.8701 C68.1318,31.1391 66.0393,36.3636 65.1051,38.6982 C64.8216,39.4029 65.4291,39.6882 66.0681,39.1545 C70.2207,35.6796 71.2944,28.3995 70.4448,27.3483 C69.6006,26.3061 62.3394,25.4079 57.9069,28.5201" id="Fill-7" fill="#EC912D"></path>
            <path d="M87.2352,14.1066 C86.499,14.1066 85.9383,13.9104 85.5513,13.518 C85.1652,13.1256 84.9726,12.555 84.9726,11.8062 L84.9726,5.5242 L83.4948,5.5242 C83.3067,5.5242 83.2149,5.4297 83.2149,5.2425 L83.2149,5.0544 C83.2149,4.9545 83.2329,4.8798 83.2698,4.8303 C83.3067,4.7808 83.3832,4.7502 83.4948,4.7367 L85.0104,4.6071 L85.1409,2.1375 C85.1526,2.0376 85.1814,1.9656 85.2237,1.9215 C85.2687,1.8792 85.3335,1.8567 85.4217,1.8567 L85.7574,1.8567 C85.9446,1.8567 86.0373,1.9512 86.0373,2.1375 L86.0373,4.5873 L88.7499,4.5873 C88.9362,4.5873 89.0307,4.6809 89.0307,4.869 L89.0307,5.2425 C89.0307,5.4297 88.9362,5.5242 88.7499,5.5242 L86.0373,5.5242 L86.0373,11.7504 C86.0373,12.2625 86.1471,12.6225 86.3649,12.8358 C86.5827,13.0482 86.9481,13.1535 87.4602,13.1535 C87.8202,13.1535 88.1397,13.1229 88.4133,13.059 C88.5501,13.0347 88.659,13.0122 88.7409,12.9942 C88.8219,12.9762 88.8813,12.9654 88.9191,12.9654 C89.0559,12.9654 89.1243,13.041 89.1243,13.1904 L89.1243,13.4712 C89.1243,13.6836 89.0559,13.8132 88.9191,13.8636 C88.4322,14.0265 87.8715,14.1066 87.2352,14.1066" id="Fill-8" fill="#222931"></path>
            <path d="M91.3869,13.9959 C91.2006,13.9959 91.1061,13.9014 91.1061,13.7142 L91.1061,4.869 C91.1061,4.6809 91.2006,4.5873 91.3869,4.5873 L91.7433,4.5873 C91.9422,4.5873 92.0484,4.6809 92.061,4.869 L92.1546,5.9517 C92.6289,5.4297 93.0924,5.058 93.5469,4.8402 C94.0023,4.6215 94.5162,4.5126 95.0913,4.5126 C95.2902,4.5126 95.4513,4.518 95.5773,4.5324 C95.7636,4.5432 95.8572,4.644 95.8572,4.8303 L95.8572,5.2983 C95.8572,5.3487 95.8383,5.3955 95.8014,5.4378 C95.7636,5.4828 95.7141,5.5044 95.652,5.5044 C95.5512,5.5044 95.4585,5.5017 95.3712,5.4945 C95.283,5.4882 95.1534,5.4855 94.9779,5.4855 C94.4046,5.4855 93.8961,5.5917 93.4542,5.8032 C93.0114,6.0156 92.5839,6.3576 92.1726,6.8319 L92.1726,13.7142 C92.1726,13.9014 92.079,13.9959 91.8927,13.9959 L91.3869,13.9959" id="Fill-9" fill="#222931"></path>
            <path d="M99.8964,13.2282 C100.3698,13.2282 100.881,13.131 101.4309,12.9375 C101.979,12.744 102.5343,12.474 103.095,12.1257 L103.095,9.7857 C102.2589,9.5625 101.4489,9.45 100.6641,9.45 C98.9181,9.45 98.0451,10.1232 98.0451,11.4714 C98.0451,12.0438 98.2017,12.4794 98.5122,12.78 C98.8245,13.0788 99.2853,13.2282 99.8964,13.2282 Z M99.747,14.2002 C98.8866,14.2002 98.2044,13.9545 97.6986,13.4622 C97.1946,12.9699 96.9417,12.312 96.9417,11.4894 C96.9417,10.5786 97.2522,9.8622 97.8768,9.3384 C98.4996,8.8137 99.3474,8.5527 100.4211,8.5527 C101.2554,8.5527 102.1473,8.6967 103.095,8.982 L103.095,7.4115 C103.095,6.651 102.9141,6.1065 102.5523,5.7753 C102.1905,5.445 101.592,5.2794 100.7568,5.2794 C99.9081,5.2794 98.9982,5.4351 98.0262,5.7474 C97.9137,5.7852 97.8201,5.8032 97.7454,5.8032 C97.6212,5.8032 97.5591,5.7231 97.5591,5.5593 L97.5591,5.2614 C97.5591,5.1624 97.5771,5.0832 97.614,5.0265 C97.6518,4.9716 97.7148,4.9248 97.8021,4.887 C98.7867,4.5 99.828,4.3074 100.9251,4.3074 C102.0231,4.3074 102.8367,4.5378 103.3659,4.9986 C103.896,5.4603 104.1615,6.1587 104.1615,7.0929 L104.1615,13.7142 C104.1615,13.9014 104.067,13.9959 103.8807,13.9959 L103.4874,13.9959 C103.3002,13.9959 103.2012,13.9014 103.1886,13.7142 L103.1139,12.9105 C102.0411,13.7709 100.9197,14.2002 99.747,14.2002 Z" id="Fill-10" fill="#222931"></path>
            <path d="M107.397,13.9959 C107.2089,13.9959 107.1153,13.9014 107.1153,13.7142 L107.1153,4.869 C107.1153,4.6809 107.2089,4.5873 107.397,4.5873 L107.901,4.5873 C108.0891,4.5873 108.1818,4.6809 108.1818,4.869 L108.1818,13.7142 C108.1818,13.9014 108.0891,13.9959 107.901,13.9959 L107.397,13.9959 Z M107.658,2.5686 C107.4078,2.5686 107.2116,2.4939 107.0694,2.3427 C106.9263,2.1942 106.8543,1.9935 106.8543,1.7451 C106.8543,1.4967 106.9263,1.296 107.0694,1.1457 C107.2116,0.9963 107.4078,0.9216 107.658,0.9216 C107.9082,0.9216 108.1044,0.9963 108.2475,1.1457 C108.3897,1.296 108.4617,1.4967 108.4617,1.7451 C108.4617,1.9935 108.3897,2.1942 108.2475,2.3427 C108.1044,2.4939 107.9082,2.5686 107.658,2.5686 Z" id="Fill-11" fill="#222931"></path>
            <path d="M111.4551,13.9959 C111.2688,13.9959 111.1743,13.9014 111.1743,13.7142 L111.1743,4.869 C111.1743,4.6809 111.2688,4.5873 111.4551,4.5873 L111.8295,4.5873 C112.0284,4.5873 112.1346,4.6809 112.1472,4.869 L112.2228,5.6727 C112.833,5.2362 113.4756,4.8996 114.1479,4.662 C114.822,4.4262 115.4772,4.3074 116.1126,4.3074 C117.0225,4.3074 117.7173,4.5477 118.1979,5.0265 C118.6767,5.5071 118.917,6.2145 118.917,7.1505 L118.917,13.7142 C118.917,13.9014 118.8243,13.9959 118.6371,13.9959 L118.1331,13.9959 C117.945,13.9959 117.8514,13.9014 117.8514,13.7142 L117.8514,7.5987 C117.8514,6.7887 117.6966,6.1992 117.3843,5.8302 C117.072,5.463 116.5734,5.2794 115.8885,5.2794 C114.6411,5.2794 113.4261,5.6781 112.2408,6.4764 L112.2408,13.7142 C112.2408,13.9014 112.1472,13.9959 111.96,13.9959 L111.4551,13.9959" id="Fill-12" fill="#222931"></path>
            <path d="M122.1534,13.9959 C121.9653,13.9959 121.8717,13.9014 121.8717,13.7142 L121.8717,4.869 C121.8717,4.6809 121.9653,4.5873 122.1534,4.5873 L122.6574,4.5873 C122.8455,4.5873 122.9382,4.6809 122.9382,4.869 L122.9382,13.7142 C122.9382,13.9014 122.8455,13.9959 122.6574,13.9959 L122.1534,13.9959 Z M122.4144,2.5686 C122.1642,2.5686 121.968,2.4939 121.8258,2.3427 C121.6827,2.1942 121.6107,1.9935 121.6107,1.7451 C121.6107,1.4967 121.6827,1.296 121.8258,1.1457 C121.968,0.9963 122.1642,0.9216 122.4144,0.9216 C122.6646,0.9216 122.8608,0.9963 123.0039,1.1457 C123.1461,1.296 123.2181,1.4967 123.2181,1.7451 C123.2181,1.9935 123.1461,2.1942 123.0039,2.3427 C122.8608,2.4939 122.6646,2.5686 122.4144,2.5686 Z" id="Fill-13" fill="#222931"></path>
            <path d="M126.2115,13.9959 C126.0243,13.9959 125.9307,13.9014 125.9307,13.7142 L125.9307,4.869 C125.9307,4.6809 126.0243,4.5873 126.2115,4.5873 L126.585,4.5873 C126.7839,4.5873 126.891,4.6809 126.9027,4.869 L126.9792,5.6727 C127.5894,5.2362 128.232,4.8996 128.9043,4.662 C129.5784,4.4262 130.2327,4.3074 130.8681,4.3074 C131.7789,4.3074 132.4737,4.5477 132.9543,5.0265 C133.4331,5.5071 133.6734,6.2145 133.6734,7.1505 L133.6734,13.7142 C133.6734,13.9014 133.5807,13.9959 133.3935,13.9959 L132.8886,13.9959 C132.7014,13.9959 132.6069,13.9014 132.6069,13.7142 L132.6069,7.5987 C132.6069,6.7887 132.4521,6.1992 132.1407,5.8302 C131.8284,5.463 131.3298,5.2794 130.6449,5.2794 C129.3975,5.2794 128.1816,5.6781 126.9972,6.4764 L126.9972,13.7142 C126.9972,13.9014 126.9027,13.9959 126.7164,13.9959 L126.2115,13.9959" id="Fill-14" fill="#222931"></path>
            <path d="M140.2758,12.8907 C141.21,12.8907 142.1775,12.4929 143.1747,11.6946 L143.1747,6.4962 C142.6635,6.0705 142.1703,5.7627 141.6969,5.5692 C141.2226,5.3775 140.7177,5.2794 140.1813,5.2794 C139.1841,5.2794 138.4326,5.6043 137.9286,6.2532 C137.4237,6.9012 137.1708,7.8606 137.1708,9.1314 C137.1708,10.3554 137.4354,11.286 137.9664,11.9286 C138.4947,12.5703 139.266,12.8907 140.2758,12.8907 Z M139.8636,18.0729 C139.3407,18.0729 138.8295,18.0189 138.3309,17.9127 C137.8305,17.8074 137.3958,17.6616 137.0214,17.4735 C136.8837,17.4114 136.8153,17.28 136.8153,17.0811 L136.8153,16.8192 C136.8153,16.6572 136.8837,16.5753 137.0214,16.5753 C137.0583,16.5753 137.0988,16.5816 137.1429,16.5951 C137.1861,16.6059 137.2644,16.632 137.376,16.6698 C138.2616,16.9569 139.0725,17.1009 139.8069,17.1009 C140.967,17.1009 141.8184,16.8129 142.3611,16.2387 C142.9038,15.6654 143.1747,14.7609 143.1747,13.5279 L143.1747,12.6117 C142.713,12.9987 142.2018,13.302 141.6402,13.5279 C141.0795,13.7529 140.5431,13.8636 140.0319,13.8636 C138.8349,13.8636 137.8746,13.4379 137.1528,12.5829 C136.4292,11.7297 136.0674,10.5984 136.0674,9.189 C136.0674,7.6797 136.4265,6.489 137.1429,5.616 C137.8593,4.7439 138.8349,4.3074 140.0697,4.3074 C141.2406,4.3074 142.2819,4.7259 143.1927,5.5593 L143.2683,4.869 C143.2935,4.6809 143.3979,4.5873 143.586,4.5873 L143.9604,4.5873 C144.1467,4.5873 144.2403,4.6809 144.2403,4.869 L144.2403,13.5648 C144.2403,15.0354 143.8668,16.1559 143.118,16.9209 C142.371,17.6886 141.2847,18.0729 139.8636,18.0729 Z" id="Fill-15" fill="#222931"></path>
            <path d="M154.4139,13.2282 C154.8882,13.2282 155.3994,13.131 155.9484,12.9375 C156.4974,12.744 157.0518,12.474 157.6125,12.1257 L157.6125,9.7857 C156.7773,9.5625 155.9664,9.45 155.1825,9.45 C153.4365,9.45 152.5635,10.1232 152.5635,11.4714 C152.5635,12.0438 152.7192,12.4794 153.0306,12.78 C153.342,13.0788 153.8037,13.2282 154.4139,13.2282 Z M154.2654,14.2002 C153.405,14.2002 152.7219,13.9545 152.217,13.4622 C151.713,12.9699 151.4601,12.312 151.4601,11.4894 C151.4601,10.5786 151.7706,9.8622 152.3952,9.3384 C153.018,8.8137 153.8658,8.5527 154.9386,8.5527 C155.7729,8.5527 156.6657,8.6967 157.6125,8.982 L157.6125,7.4115 C157.6125,6.651 157.4316,6.1065 157.0698,5.7753 C156.708,5.445 156.1104,5.2794 155.2743,5.2794 C154.4265,5.2794 153.5166,5.4351 152.5437,5.7474 C152.4321,5.7852 152.3385,5.8032 152.2638,5.8032 C152.1396,5.8032 152.0775,5.7231 152.0775,5.5593 L152.0775,5.2614 C152.0775,5.1624 152.0955,5.0832 152.1324,5.0265 C152.1702,4.9716 152.2332,4.9248 152.3205,4.887 C153.3051,4.5 154.3464,4.3074 155.4435,4.3074 C156.5415,4.3074 157.3551,4.5378 157.8834,4.9986 C158.4144,5.4603 158.679,6.1587 158.679,7.0929 L158.679,13.7142 C158.679,13.9014 158.5854,13.9959 158.3991,13.9959 L158.0049,13.9959 C157.8186,13.9959 157.7196,13.9014 157.707,13.7142 L157.6323,12.9105 C156.5595,13.7709 155.4372,14.2002 154.2654,14.2002 Z" id="Fill-16" fill="#222931"></path>
            <path d="M161.8389,13.9959 C161.6526,13.9959 161.559,13.9014 161.559,13.7142 L161.559,4.869 C161.559,4.6809 161.6526,4.5873 161.8389,4.5873 L162.2133,4.5873 C162.4122,4.5873 162.5184,4.6809 162.531,4.869 L162.6075,5.6727 C163.2177,5.2362 163.8603,4.8996 164.5326,4.662 C165.2067,4.4262 165.861,4.3074 166.4964,4.3074 C167.4063,4.3074 168.1011,4.5477 168.5817,5.0265 C169.0614,5.5071 169.3017,6.2145 169.3017,7.1505 L169.3017,13.7142 C169.3017,13.9014 169.209,13.9959 169.0209,13.9959 L168.5169,13.9959 C168.3297,13.9959 168.2352,13.9014 168.2352,13.7142 L168.2352,7.5987 C168.2352,6.7887 168.0804,6.1992 167.7681,5.8302 C167.4567,5.463 166.9581,5.2794 166.2723,5.2794 C165.0258,5.2794 163.8099,5.6781 162.6255,6.4764 L162.6255,13.7142 C162.6255,13.9014 162.531,13.9959 162.3447,13.9959 L161.8389,13.9959" id="Fill-17" fill="#222931"></path>
            <path d="M175.941,13.2282 C176.8761,13.2282 177.8553,12.8304 178.8768,12.0321 L178.8768,6.4962 C178.3539,6.0705 177.8508,5.7627 177.372,5.5692 C176.8914,5.3775 176.3829,5.2794 175.8465,5.2794 C174.8493,5.2794 174.0924,5.616 173.5749,6.2892 C173.0574,6.9633 172.7991,7.9605 172.7991,9.2817 C172.7991,11.9133 173.8458,13.2282 175.941,13.2282 Z M175.698,14.2002 C174.4632,14.2002 173.4876,13.7682 172.7712,12.9015 C172.0539,12.0348 171.6948,10.8468 171.6948,9.3384 C171.6948,7.7913 172.0566,6.5682 172.7811,5.6637 C173.5029,4.7583 174.4875,4.3074 175.7349,4.3074 C176.895,4.3074 177.9417,4.7187 178.8768,5.5422 L178.8768,0.4356 C178.8768,0.2475 178.9713,0.1557 179.1576,0.1557 L179.6634,0.1557 C179.8497,0.1557 179.9433,0.2475 179.9433,0.4356 L179.9433,13.7142 C179.9433,13.9014 179.8497,13.9959 179.6634,13.9959 L179.2692,13.9959 C179.0829,13.9959 178.9767,13.9014 178.9515,13.7142 L178.8768,12.9474 C178.416,13.3344 177.9021,13.6395 177.3342,13.8636 C176.7663,14.0886 176.2209,14.2002 175.698,14.2002 Z" id="Fill-18" fill="#222931"></path>
            <path d="M88.2639,33.2937 C86.8176,33.2937 85.7196,32.8788 84.9726,32.0499 C84.2238,31.221 83.8494,30.0024 83.8494,28.3932 C83.8494,26.7975 84.2301,25.578 84.9906,24.7383 C85.752,23.8959 86.8554,23.4747 88.3017,23.4747 C88.9866,23.4747 89.6409,23.5935 90.2655,23.8293 C90.4149,23.8797 90.4887,24.012 90.4887,24.2235 L90.4887,24.4845 C90.4887,24.6474 90.4149,24.7275 90.2655,24.7275 C90.2277,24.7275 90.1809,24.7221 90.1242,24.7095 C90.0693,24.6969 89.9784,24.678 89.8542,24.6528 C89.3556,24.5286 88.8561,24.4665 88.3575,24.4665 C87.1731,24.4665 86.3154,24.7689 85.7862,25.3737 C85.2561,25.9785 84.9906,26.9478 84.9906,28.2825 L84.9906,28.5057 C84.9906,29.8026 85.2588,30.7602 85.7943,31.3758 C86.3307,31.995 87.1731,32.3028 88.3206,32.3028 C88.8066,32.3028 89.3484,32.2218 89.9478,32.058 C90.0846,32.0229 90.1809,31.9977 90.2376,31.9842 C90.2925,31.9725 90.3402,31.9662 90.3771,31.9662 C90.5265,31.9662 90.6021,32.0472 90.6021,32.2092 L90.6021,32.4702 C90.6021,32.67 90.5337,32.8014 90.3969,32.8635 C89.7102,33.1497 88.9992,33.2937 88.2639,33.2937" id="Fill-19" fill="#222931"></path>
            <path d="M98.8668,27.702 C98.8794,27.5283 98.8866,27.3213 98.8866,27.0837 C98.8866,26.1855 98.6679,25.5078 98.2314,25.0452 C97.7949,24.5853 97.1532,24.354 96.3054,24.354 C94.3344,24.354 93.294,25.47 93.1824,27.702 L98.8668,27.702 Z M96.5673,33.3675 C95.0832,33.3675 93.9672,32.9481 93.2193,32.1057 C92.4714,31.2642 92.097,30.0141 92.097,28.3572 C92.097,26.7849 92.4741,25.5672 93.2283,24.6996 C93.9834,23.8338 95.04,23.4 96.399,23.4 C97.533,23.4 98.4033,23.7249 99.0081,24.372 C99.612,25.02 99.9144,25.9506 99.9144,27.1593 C99.9144,27.6579 99.8892,28.0323 99.8397,28.2825 C99.8019,28.4688 99.6957,28.5615 99.522,28.5615 L93.1824,28.5615 C93.1932,29.871 93.4803,30.8376 94.041,31.4622 C94.6035,32.085 95.4693,32.3955 96.642,32.3955 C97.5402,32.3955 98.3934,32.2407 99.2043,31.9284 C99.3654,31.8663 99.4779,31.8348 99.5409,31.8348 C99.5904,31.8348 99.6336,31.8564 99.6705,31.9014 C99.7083,31.9455 99.7272,31.9977 99.7272,32.058 L99.7272,32.3406 C99.7272,32.5395 99.6588,32.67 99.522,32.7321 C98.6238,33.1569 97.6392,33.3675 96.5673,33.3675 Z" id="Fill-20" fill="#222931"></path>
            <path d="M102.7386,33.0885 C102.5523,33.0885 102.4578,32.9949 102.4578,32.8068 L102.4578,23.9625 C102.4578,23.7744 102.5523,23.6808 102.7386,23.6808 L103.095,23.6808 C103.2939,23.6808 103.4001,23.7744 103.4127,23.9625 L103.5063,25.0452 C103.9797,24.5232 104.4441,24.1515 104.8986,23.9328 C105.354,23.715 105.8679,23.6061 106.443,23.6061 C106.6419,23.6061 106.803,23.6115 106.929,23.625 C107.1153,23.6367 107.2089,23.7375 107.2089,23.9238 L107.2089,24.3918 C107.2089,24.4413 107.19,24.4881 107.1522,24.5313 C107.1153,24.5754 107.0658,24.5979 107.0037,24.5979 C106.9029,24.5979 106.8102,24.5943 106.7229,24.588 C106.6347,24.5808 106.5051,24.5781 106.3296,24.5781 C105.7563,24.5781 105.2478,24.6843 104.8059,24.8958 C104.3631,25.1082 103.9356,25.4511 103.5243,25.9245 L103.5243,32.8068 C103.5243,32.9949 103.4307,33.0885 103.2444,33.0885 L102.7386,33.0885" id="Fill-21" fill="#222931"></path>
            <path d="M112.3515,33.1992 C111.6153,33.1992 111.0546,33.003 110.6676,32.6106 C110.2806,32.2191 110.0889,31.6485 110.0889,30.8997 L110.0889,24.6168 L108.6111,24.6168 C108.423,24.6168 108.3312,24.5232 108.3312,24.3351 L108.3312,24.147 C108.3312,24.048 108.3483,23.9733 108.3861,23.9238 C108.423,23.8734 108.4995,23.8437 108.6111,23.8293 L110.1267,23.6997 L110.2572,21.2301 C110.2689,21.1311 110.2977,21.0591 110.34,21.015 C110.3841,20.9718 110.4498,20.9502 110.538,20.9502 L110.8737,20.9502 C111.0609,20.9502 111.1536,21.0438 111.1536,21.2301 L111.1536,23.6808 L113.8662,23.6808 C114.0525,23.6808 114.147,23.7744 114.147,23.9625 L114.147,24.3351 C114.147,24.5232 114.0525,24.6168 113.8662,24.6168 L111.1536,24.6168 L111.1536,30.843 C111.1536,31.3551 111.2625,31.716 111.4812,31.9284 C111.699,32.1417 112.0644,32.2461 112.5765,32.2461 C112.9365,32.2461 113.256,32.2164 113.5296,32.1525 C113.6664,32.1273 113.7753,32.1057 113.8563,32.0877 C113.9382,32.0697 113.9976,32.058 114.0345,32.058 C114.1713,32.058 114.2406,32.1345 114.2406,32.2839 L114.2406,32.5638 C114.2406,32.7762 114.1713,32.9067 114.0345,32.9562 C113.5485,33.1191 112.9878,33.1992 112.3515,33.1992" id="Fill-22" fill="#222931"></path>
            <path d="M116.7669,33.0885 C116.5788,33.0885 116.4852,32.9949 116.4852,32.8068 L116.4852,23.9625 C116.4852,23.7744 116.5788,23.6808 116.7669,23.6808 L117.2709,23.6808 C117.459,23.6808 117.5517,23.7744 117.5517,23.9625 L117.5517,32.8068 C117.5517,32.9949 117.459,33.0885 117.2709,33.0885 L116.7669,33.0885 Z M117.0279,21.6612 C116.7777,21.6612 116.5815,21.5865 116.4393,21.4362 C116.2962,21.2868 116.2242,21.087 116.2242,20.8377 C116.2242,20.5893 116.2962,20.3895 116.4393,20.2383 C116.5815,20.0898 116.7777,20.0151 117.0279,20.0151 C117.2781,20.0151 117.4743,20.0898 117.6174,20.2383 C117.7596,20.3895 117.8316,20.5893 117.8316,20.8377 C117.8316,21.087 117.7596,21.2868 117.6174,21.4362 C117.4743,21.5865 117.2781,21.6612 117.0279,21.6612 Z" id="Fill-23" fill="#222931"></path>
            <path d="M128.1555,21.6612 C127.9062,21.6612 127.71,21.5865 127.5678,21.4362 C127.4238,21.2868 127.3518,21.087 127.3518,20.8377 C127.3518,20.5893 127.4238,20.3895 127.5678,20.2383 C127.71,20.0898 127.9062,20.0151 128.1555,20.0151 C128.4057,20.0151 128.6019,20.0898 128.7459,20.2383 C128.8881,20.3895 128.9592,20.5893 128.9592,20.8377 C128.9592,21.087 128.8881,21.2868 128.7459,21.4362 C128.6019,21.5865 128.4057,21.6612 128.1555,21.6612 Z M121.797,33.0885 C121.6107,33.0885 121.5162,32.9949 121.5162,32.8068 L121.5162,24.6168 L119.9646,24.6168 C119.7774,24.6168 119.6838,24.5232 119.6838,24.3351 L119.6838,24.147 C119.6838,23.9733 119.7657,23.8734 119.9268,23.8491 L121.5162,23.6997 L121.5162,21.5478 C121.5162,20.7135 121.7349,20.0781 122.1714,19.6416 C122.6079,19.2051 123.2307,18.9873 124.0416,18.9873 C124.6023,18.9873 125.0883,19.0476 125.4996,19.1727 C125.5995,19.1988 125.6715,19.2384 125.7156,19.2942 C125.7597,19.3518 125.7804,19.4346 125.7804,19.548 L125.7804,19.8657 C125.7804,20.0268 125.7057,20.1087 125.5563,20.1087 C125.4447,20.0961 125.2692,20.0673 125.0334,20.025 C124.7958,19.9818 124.5096,19.9593 124.1721,19.9593 C123.6114,19.9593 123.2055,20.0745 122.9571,20.3049 C122.7069,20.5353 122.5827,20.9124 122.5827,21.4362 L122.5827,23.6808 L128.3985,23.6808 C128.5866,23.6808 128.6793,23.7744 128.6793,23.9625 L128.6793,32.8068 C128.6793,32.9949 128.5866,33.0885 128.3985,33.0885 L127.8945,33.0885 C127.7073,33.0885 127.6128,32.9949 127.6128,32.8068 L127.6128,24.6168 L122.5827,24.6168 L122.5827,32.8068 C122.5827,32.9949 122.4891,33.0885 122.3028,33.0885 L121.797,33.0885 Z" id="Fill-24" fill="#222931"></path>
            <path d="M135.7866,33.2937 C134.3403,33.2937 133.2423,32.8788 132.4953,32.0499 C131.7465,31.221 131.3721,30.0024 131.3721,28.3932 C131.3721,26.7975 131.7519,25.578 132.5133,24.7383 C133.2747,23.8959 134.3781,23.4747 135.8235,23.4747 C136.5093,23.4747 137.1636,23.5935 137.7882,23.8293 C137.9367,23.8797 138.0114,24.012 138.0114,24.2235 L138.0114,24.4845 C138.0114,24.6474 137.9367,24.7275 137.7882,24.7275 C137.7504,24.7275 137.7036,24.7221 137.6469,24.7095 C137.592,24.6969 137.5002,24.678 137.376,24.6528 C136.8774,24.5286 136.3788,24.4665 135.8802,24.4665 C134.6958,24.4665 133.8381,24.7689 133.3089,25.3737 C132.7788,25.9785 132.5133,26.9478 132.5133,28.2825 L132.5133,28.5057 C132.5133,29.8026 132.7815,30.7602 133.317,31.3758 C133.8534,31.995 134.6958,32.3028 135.8433,32.3028 C136.3293,32.3028 136.8711,32.2218 137.4705,32.058 C137.6073,32.0229 137.7036,31.9977 137.7603,31.9842 C137.8152,31.9725 137.8629,31.9662 137.8998,31.9662 C138.0492,31.9662 138.1248,32.0472 138.1248,32.2092 L138.1248,32.4702 C138.1248,32.67 138.0555,32.8014 137.9187,32.8635 C137.2329,33.1497 136.521,33.2937 135.7866,33.2937" id="Fill-25" fill="#222931"></path>
            <path d="M142.8372,32.3208 C143.3115,32.3208 143.8218,32.2245 144.3717,32.031 C144.9198,31.8375 145.4751,31.5666 146.0358,31.2183 L146.0358,28.8792 C145.2006,28.6551 144.3897,28.5435 143.6049,28.5435 C141.8598,28.5435 140.9868,29.2158 140.9868,30.564 C140.9868,31.1373 141.1425,31.572 141.4539,31.8735 C141.7653,32.1714 142.227,32.3208 142.8372,32.3208 Z M142.6878,33.2937 C141.8274,33.2937 141.1452,33.0471 140.6403,32.5557 C140.1363,32.0625 139.8834,31.4055 139.8834,30.582 C139.8834,29.6721 140.1939,28.9548 140.8185,28.4319 C141.4413,27.9072 142.2891,27.6453 143.3619,27.6453 C144.1962,27.6453 145.089,27.7893 146.0358,28.0755 L146.0358,26.505 C146.0358,25.7436 145.8549,25.2 145.4931,24.8679 C145.1313,24.5385 144.5337,24.372 143.6976,24.372 C142.8498,24.372 141.9399,24.5286 140.967,24.8409 C140.8554,24.8778 140.7618,24.8958 140.6871,24.8958 C140.5629,24.8958 140.5008,24.8157 140.5008,24.6528 L140.5008,24.354 C140.5008,24.255 140.5188,24.1758 140.5557,24.12 C140.5926,24.0642 140.6565,24.0174 140.7438,23.9805 C141.7284,23.5935 142.7697,23.4 143.8668,23.4 C144.9648,23.4 145.7775,23.6304 146.3067,24.0921 C146.8368,24.5529 147.1023,25.2522 147.1023,26.1855 L147.1023,32.8068 C147.1023,32.9949 147.0087,33.0885 146.8224,33.0885 L146.4282,33.0885 C146.2419,33.0885 146.1429,32.9949 146.1303,32.8068 L146.0556,32.0031 C144.9819,32.8635 143.8605,33.2937 142.6878,33.2937 Z" id="Fill-26" fill="#222931"></path>
            <path d="M153.0675,33.1992 C152.3313,33.1992 151.7706,33.003 151.3836,32.6106 C150.9975,32.2191 150.8049,31.6485 150.8049,30.8997 L150.8049,24.6168 L149.3271,24.6168 C149.1399,24.6168 149.0472,24.5232 149.0472,24.3351 L149.0472,24.147 C149.0472,24.048 149.0652,23.9733 149.1021,23.9238 C149.1399,23.8734 149.2155,23.8437 149.3271,23.8293 L150.8427,23.6997 L150.9741,21.2301 C150.9849,21.1311 151.0137,21.0591 151.0569,21.015 C151.101,20.9718 151.1658,20.9502 151.254,20.9502 L151.5897,20.9502 C151.7778,20.9502 151.8705,21.0438 151.8705,21.2301 L151.8705,23.6808 L154.5831,23.6808 C154.7694,23.6808 154.863,23.7744 154.863,23.9625 L154.863,24.3351 C154.863,24.5232 154.7694,24.6168 154.5831,24.6168 L151.8705,24.6168 L151.8705,30.843 C151.8705,31.3551 151.9794,31.716 152.1972,31.9284 C152.4159,32.1417 152.7804,32.2461 153.2925,32.2461 C153.6534,32.2461 153.972,32.2164 154.2456,32.1525 C154.3824,32.1273 154.4913,32.1057 154.5732,32.0877 C154.6542,32.0697 154.7136,32.058 154.7514,32.058 C154.8882,32.058 154.9566,32.1345 154.9566,32.2839 L154.9566,32.5638 C154.9566,32.7762 154.8882,32.9067 154.7514,32.9562 C154.2654,33.1191 153.7047,33.1992 153.0675,33.1992" id="Fill-27" fill="#222931"></path>
            <path d="M157.4829,33.0885 C157.2957,33.0885 157.2012,32.9949 157.2012,32.8068 L157.2012,23.9625 C157.2012,23.7744 157.2957,23.6808 157.4829,23.6808 L157.9869,23.6808 C158.175,23.6808 158.2677,23.7744 158.2677,23.9625 L158.2677,32.8068 C158.2677,32.9949 158.175,33.0885 157.9869,33.0885 L157.4829,33.0885 Z M157.7439,21.6612 C157.4946,21.6612 157.2984,21.5865 157.1562,21.4362 C157.0122,21.2868 156.9402,21.087 156.9402,20.8377 C156.9402,20.5893 157.0122,20.3895 157.1562,20.2383 C157.2984,20.0898 157.4946,20.0151 157.7439,20.0151 C157.9941,20.0151 158.1903,20.0898 158.3343,20.2383 C158.4765,20.3895 158.5476,20.5893 158.5476,20.8377 C158.5476,21.087 158.4765,21.2868 158.3343,21.4362 C158.1903,21.5865 157.9941,21.6612 157.7439,21.6612 Z" id="Fill-28" fill="#222931"></path>
            <path d="M165.3003,32.3955 C167.4567,32.3955 168.5349,31.0554 168.5349,28.3752 C168.5349,25.7076 167.4567,24.372 165.3003,24.372 C163.143,24.372 162.0648,25.7076 162.0648,28.3752 C162.0648,31.0554 163.143,32.3955 165.3003,32.3955 Z M165.3003,33.3675 C163.9287,33.3675 162.8631,32.9283 162.1017,32.0499 C161.3403,31.1715 160.9605,29.9457 160.9605,28.3752 C160.9605,26.8047 161.3403,25.5825 162.1017,24.7095 C162.8631,23.8365 163.9287,23.4 165.3003,23.4 C166.6719,23.4 167.7384,23.8365 168.498,24.7095 C169.2585,25.5825 169.6383,26.8047 169.6383,28.3752 C169.6383,29.9457 169.2585,31.1715 168.498,32.0499 C167.7384,32.9283 166.6719,33.3675 165.3003,33.3675 Z" id="Fill-29" fill="#222931"></path>
            <path d="M172.5372,33.0885 C172.3509,33.0885 172.2573,32.9949 172.2573,32.8068 L172.2573,23.9625 C172.2573,23.7744 172.3509,23.6808 172.5372,23.6808 L172.9116,23.6808 C173.1105,23.6808 173.2176,23.7744 173.2293,23.9625 L173.3058,24.7662 C173.916,24.3297 174.5586,23.9922 175.2309,23.7546 C175.905,23.5188 176.5593,23.4 177.1947,23.4 C178.1055,23.4 178.7994,23.6403 179.28,24.12 C179.7597,24.6006 180,25.3071 180,26.244 L180,32.8068 C180,32.9949 179.9073,33.0885 179.7192,33.0885 L179.2152,33.0885 C179.028,33.0885 178.9335,32.9949 178.9335,32.8068 L178.9335,26.6913 C178.9335,25.8822 178.7787,25.2918 178.4673,24.9237 C178.155,24.5565 177.6564,24.372 176.9715,24.372 C175.7241,24.372 174.5082,24.7716 173.3238,25.5699 L173.3238,32.8068 C173.3238,32.9949 173.2293,33.0885 173.043,33.0885 L172.5372,33.0885" id="Fill-30" fill="#222931"></path>
        </g>
    </g>
</svg>