<?xml version="1.0" encoding="UTF-8"?>
<svg width="226px" height="164px" viewBox="0 0 226 164" version="1.1" xmlns="http://www.w3.org/2000/svg" xmlns:xlink="http://www.w3.org/1999/xlink">
    <!-- Generator: Sketch 49.3 (51167) - http://www.bohemiancoding.com/sketch -->
    <title>icon/cloud-practitioner</title>
    <desc>Created with Sketch.</desc>
    <defs></defs>
    <g id="icon/cloud-practitioner" stroke="none" stroke-width="1" fill="none" fill-rule="evenodd">
        <g id="Cloud-Practitioner">
            <polygon id="Shape" fill="#F99D1B" fill-rule="nonzero" points="33.23 124.19 0.87 140.38 225.13 140.38 192.7 124.25"></polygon>
            <path d="M34.89,0.5 L191.11,0.5 C191.855258,0.5 192.569993,0.796052721 193.09697,1.32302994 C193.623947,1.85000717 193.92,2.56474166 193.92,3.31 L193.92,124.2 L32.08,124.2 L32.08,3.31 C32.08,2.56474166 32.3760527,1.85000717 32.9030299,1.32302994 C33.4300072,0.796052721 34.1447417,0.5 34.89,0.5 Z" id="Shape" stroke="#444444" stroke-width="3" stroke-linejoin="round"></path>
            <rect id="Rectangle-path" stroke="#444444" stroke-width="3" stroke-linejoin="round" x="51.73" y="17.84" width="124.85" height="92.48"></rect>
            <rect id="Rectangle-path" stroke="#444444" stroke-width="3" stroke-linejoin="round" x="0.87" y="140.38" width="224.27" height="23.12"></rect>
            <path d="M33.23,124.2 L0.87,140.38" id="Shape" stroke="#444444" stroke-width="3" stroke-linejoin="round"></path>
            <path d="M225.13,140.38 L192.77,124.2" id="Shape" stroke="#444444" stroke-width="3" stroke-linejoin="round"></path>
            <polygon id="Shape" stroke="#444444" stroke-width="3" stroke-linejoin="round" points="82.94 42.12 113 30.56 145.37 42.12 115.31 53.68"></polygon>
            <polygon id="Shape" stroke="#444444" stroke-width="3" fill="#CCCCCC" fill-rule="nonzero" stroke-linejoin="round" points="82.94 86.05 82.94 42.12 115.4 53.68 115.4 98.01"></polygon>
            <polygon id="Shape" stroke="#444444" stroke-width="3" fill="#999999" fill-rule="nonzero" stroke-linejoin="round" points="145.44 86.05 145.44 42.12 115.38 53.68 115.38 98.01"></polygon>
        </g>
    </g>
</svg>