<?xml version="1.0" encoding="UTF-8"?>
<svg width="178px" height="43px" viewBox="0 0 178 43" version="1.1" xmlns="http://www.w3.org/2000/svg" xmlns:xlink="http://www.w3.org/1999/xlink">
    <!-- Generator: Sketch 48.2 (47327) - http://www.bohemiancoding.com/sketch -->
    <title>logo-lockup@3x</title>
    <desc>Created with Sketch.</desc>
    <defs></defs>
    <g id="modality-worksheet-1" stroke="none" stroke-width="1" fill="none" fill-rule="evenodd" transform="translate(-135.000000, -26.000000)">
        <g id="module/desktop/quiz-question-screen-dark">
            <g id="module/desktop/header/simple-header-only-logo">
                <g id="logo-lockup" transform="translate(135.000000, 26.000000)">
                    <g id="module/desktop/navigation/navigation-simple-with-CTA-Copy">
                        <g id="logo/negative">
                            <g id="Amazon_Web_Services_Logo">
                                <path d="M20.3602649,15.3672131 C20.3602649,16.236612 20.4556291,16.9415301 20.6225166,17.4584699 C20.813245,17.9754098 21.0516556,18.5393443 21.3854305,19.1502732 C21.5046358,19.3382514 21.5523179,19.5262295 21.5523179,19.6907104 C21.5523179,19.9256831 21.4092715,20.1606557 21.0993377,20.3956284 L19.597351,21.3825137 C19.3827815,21.5234973 19.1682119,21.5939891 18.9774834,21.5939891 C18.7390728,21.5939891 18.5006623,21.4765027 18.2622517,21.2650273 C17.9284768,20.9125683 17.6423841,20.536612 17.4039735,20.1606557 C17.1655629,19.7612022 16.9271523,19.3147541 16.6649007,18.7743169 C14.805298,20.9360656 12.4688742,22.0169399 9.65562914,22.0169399 C7.65298013,22.0169399 6.05562914,21.4530055 4.88741722,20.3251366 C3.7192053,19.1972678 3.12317881,17.6934426 3.12317881,15.8136612 C3.12317881,13.8163934 3.8384106,12.195082 5.29271523,10.973224 C6.74701987,9.75136612 8.6781457,9.14043716 11.1337748,9.14043716 C11.9443709,9.14043716 12.7788079,9.21092896 13.6609272,9.3284153 C14.5430464,9.44590164 15.4490066,9.63387978 16.402649,9.84535519 L16.402649,8.13005464 C16.402649,6.3442623 16.0211921,5.0989071 15.2821192,4.3704918 C14.5192053,3.6420765 13.2317881,3.28961749 11.3960265,3.28961749 C10.5615894,3.28961749 9.70331126,3.38360656 8.82119205,3.59508197 C7.93907285,3.80655738 7.0807947,4.06502732 6.24635762,4.39398907 C5.86490066,4.55846995 5.57880795,4.65245902 5.41192053,4.69945355 C5.24503311,4.74644809 5.12582781,4.76994536 5.03046358,4.76994536 C4.69668874,4.76994536 4.52980132,4.53497268 4.52980132,4.04153005 L4.52980132,2.89016393 C4.52980132,2.51420765 4.57748344,2.23224044 4.69668874,2.06775956 C4.81589404,1.90327869 5.03046358,1.73879781 5.36423841,1.57431694 C6.1986755,1.15136612 7.2,0.798907104 8.36821192,0.516939891 C9.53642384,0.21147541 10.7761589,0.0704918033 12.0874172,0.0704918033 C14.9245033,0.0704918033 16.9986755,0.704918033 18.3337748,1.97377049 C19.6450331,3.24262295 20.3125828,5.16939891 20.3125828,7.75409836 L20.3125828,15.3672131 L20.3602649,15.3672131 Z M10.6807947,18.9387978 C11.4675497,18.9387978 12.2781457,18.7978142 13.1364238,18.515847 C13.994702,18.2338798 14.7576159,17.7169399 15.4013245,17.0120219 C15.7827815,16.5655738 16.0688742,16.0721311 16.2119205,15.5081967 C16.3549669,14.9442623 16.4503311,14.2628415 16.4503311,13.4639344 L16.4503311,12.4770492 C15.7589404,12.3125683 15.0198675,12.1715847 14.2569536,12.0775956 C13.4940397,11.9836066 12.7549669,11.936612 12.015894,11.936612 C10.418543,11.936612 9.25033113,12.2420765 8.46357616,12.8765027 C7.67682119,13.510929 7.29536424,14.4038251 7.29536424,15.5786885 C7.29536424,16.6830601 7.58145695,17.5054645 8.17748344,18.0693989 C8.74966887,18.6568306 9.58410596,18.9387978 10.6807947,18.9387978 Z M29.8251656,21.4765027 C29.3960265,21.4765027 29.1099338,21.4060109 28.9192053,21.2415301 C28.7284768,21.1005464 28.5615894,20.7715847 28.418543,20.3251366 L22.815894,2.16174863 C22.6728477,1.69180328 22.6013245,1.3863388 22.6013245,1.22185792 C22.6013245,0.845901639 22.792053,0.63442623 23.1735099,0.63442623 L25.5099338,0.63442623 C25.9629139,0.63442623 26.2728477,0.704918033 26.4397351,0.869398907 C26.6304636,1.01038251 26.7735099,1.33934426 26.9165563,1.78579235 L30.9218543,17.3409836 L34.6410596,1.78579235 C34.7602649,1.31584699 34.9033113,1.01038251 35.0940397,0.869398907 C35.2847682,0.728415301 35.618543,0.63442623 36.0476821,0.63442623 L37.9549669,0.63442623 C38.407947,0.63442623 38.7178808,0.704918033 38.9086093,0.869398907 C39.0993377,1.01038251 39.2662252,1.33934426 39.3615894,1.78579235 L43.1284768,17.5289617 L47.2529801,1.78579235 C47.3960265,1.31584699 47.5629139,1.01038251 47.7298013,0.869398907 C47.9205298,0.728415301 48.2304636,0.63442623 48.6596026,0.63442623 L50.8768212,0.63442623 C51.2582781,0.63442623 51.4728477,0.822404372 51.4728477,1.22185792 C51.4728477,1.33934426 51.4490066,1.4568306 51.4251656,1.59781421 C51.4013245,1.73879781 51.3536424,1.92677596 51.2582781,2.1852459 L45.5125828,20.3486339 C45.3695364,20.8185792 45.202649,21.1240437 45.0119205,21.2650273 C44.8211921,21.4060109 44.5112583,21.5 44.1059603,21.5 L42.0556291,21.5 C41.602649,21.5 41.2927152,21.4295082 41.1019868,21.2650273 C40.9112583,21.1005464 40.7443709,20.795082 40.6490066,20.3251366 L36.9536424,5.16939891 L33.2821192,20.3016393 C33.1629139,20.7715847 33.0198675,21.0770492 32.8291391,21.2415301 C32.6384106,21.4060109 32.3046358,21.4765027 31.8754967,21.4765027 L29.8251656,21.4765027 Z M60.4609272,22.110929 C59.2211921,22.110929 57.981457,21.9699454 56.789404,21.6879781 C55.597351,21.4060109 54.6675497,21.1005464 54.0476821,20.7480874 C53.6662252,20.536612 53.4039735,20.3016393 53.3086093,20.0901639 C53.213245,19.8786885 53.1655629,19.6437158 53.1655629,19.4322404 L53.1655629,18.2338798 C53.1655629,17.7404372 53.3562914,17.5054645 53.7139073,17.5054645 C53.8569536,17.5054645 54,17.5289617 54.1430464,17.5759563 C54.2860927,17.6229508 54.5006623,17.7169399 54.7390728,17.810929 C55.5496689,18.163388 56.4317881,18.4453552 57.3615894,18.6333333 C58.3152318,18.8213115 59.2450331,18.9153005 60.1986755,18.9153005 C61.7006623,18.9153005 62.8688742,18.6568306 63.6794702,18.1398907 C64.4900662,17.6229508 64.9192053,16.8710383 64.9192053,15.9076503 C64.9192053,15.2497268 64.7046358,14.7092896 64.2754967,14.2628415 C63.8463576,13.8163934 63.0357616,13.4169399 61.8675497,13.0409836 L58.410596,11.9836066 C56.6701987,11.4431694 55.3827815,10.6442623 54.5960265,9.58688525 C53.8092715,8.55300546 53.4039735,7.40163934 53.4039735,6.17978142 C53.4039735,5.19289617 53.618543,4.32349727 54.0476821,3.5715847 C54.4768212,2.81967213 55.0490066,2.16174863 55.7642384,1.64480874 C56.4794702,1.10437158 57.2900662,0.704918033 58.2437086,0.42295082 C59.197351,0.140983607 60.1986755,0.0234972678 61.2476821,0.0234972678 C61.7721854,0.0234972678 62.3205298,0.0469945355 62.8450331,0.117486339 C63.3933775,0.187978142 63.8940397,0.281967213 64.394702,0.375956284 C64.8715232,0.493442623 65.3245033,0.610928962 65.7536424,0.751912568 C66.1827815,0.892896175 66.5165563,1.03387978 66.7549669,1.17486339 C67.0887417,1.36284153 67.3271523,1.55081967 67.4701987,1.76229508 C67.613245,1.95027322 67.6847682,2.20874317 67.6847682,2.53770492 L67.6847682,3.6420765 C67.6847682,4.13551913 67.4940397,4.39398907 67.1364238,4.39398907 C66.9456954,4.39398907 66.6357616,4.3 66.2304636,4.11202186 C64.8715232,3.5010929 63.3456954,3.19562842 61.6529801,3.19562842 C60.2940397,3.19562842 59.2211921,3.40710383 58.4821192,3.85355191 C57.7430464,4.3 57.3615894,4.98142077 57.3615894,5.94480874 C57.3615894,6.60273224 57.6,7.16666667 58.0768212,7.61311475 C58.5536424,8.05956284 59.4357616,8.50601093 60.6993377,8.90546448 L64.0847682,9.96284153 C65.8013245,10.5032787 67.0410596,11.2551913 67.7801325,12.2185792 C68.5192053,13.1819672 68.8768212,14.2863388 68.8768212,15.5081967 C68.8768212,16.5185792 68.6622517,17.4349727 68.2569536,18.2338798 C67.8278146,19.0327869 67.2556291,19.7377049 66.5165563,20.3016393 C65.7774834,20.889071 64.8953642,21.3120219 63.8701987,21.6174863 C62.797351,21.9464481 61.6768212,22.110929 60.4609272,22.110929 Z" id="Shape" fill="#FFFFFF" fill-rule="nonzero"></path>
                                <g id="Group" transform="translate(0.000000, 26.316940)" fill="#FF9900">
                                    <path d="M64.9668874,7.2136612 C57.1231788,12.9234973 45.7271523,15.9546448 35.9284768,15.9546448 C22.1960265,15.9546448 9.82251656,10.9497268 0.476821192,2.63169399 C-0.262251656,1.97377049 0.405298013,1.08087432 1.28741722,1.59781421 C11.3960265,7.37814208 23.8649007,10.879235 36.7629139,10.879235 C45.4649007,10.879235 55.0251656,9.09344262 63.8225166,5.42786885 C65.1337748,4.84043716 66.2543046,6.27377049 64.9668874,7.2136612 Z" id="Shape"></path>
                                    <path d="M68.2331126,3.54808743 C67.2317881,2.27923497 61.605298,2.93715847 59.0543046,3.24262295 C58.2913907,3.33661202 58.1721854,2.67868852 58.8635762,2.1852459 C63.3456954,-0.916393443 70.7125828,-0.0234972678 71.5708609,1.01038251 C72.4291391,2.06775956 71.3324503,9.3284153 67.1364238,12.8060109 C66.4927152,13.3464481 65.8728477,13.0644809 66.1589404,12.3595628 C67.1125828,10.0333333 69.2344371,4.79344262 68.2331126,3.54808743 Z" id="Shape"></path>
                                </g>
                            </g>
                        </g>
                    </g>
                    <text id="training-and-certifi" font-family="AmazonEmber-Light, Amazon Ember" font-size="18" font-weight="300" line-spacing="18" fill="#FFFFFF">
                        <tspan x="84.219" y="18">training and</tspan>
                        <tspan x="84" y="36" letter-spacing="0.2">certification</tspan>
                    </text>
                </g>
            </g>
        </g>
    </g>
</svg>