<?xml version="1.0" encoding="UTF-8"?>
<svg width="98px" height="98px" viewBox="0 0 98 98" version="1.1" xmlns="http://www.w3.org/2000/svg" xmlns:xlink="http://www.w3.org/1999/xlink">
    <!-- Generator: Sketch 48.2 (47327) - http://www.bohemiancoding.com/sketch -->
    <title>Icon_96x96_Instructor Training</title>
    <desc>Created with Sketch.</desc>
    <defs></defs>
    <g id="icon/modality/instructor-training-copy" stroke="none" stroke-width="1" fill="none" fill-rule="evenodd" transform="translate(1.000000, 1.000000)">
        <g id="Icon_96x96_Instructor-Training" stroke-width="1.32110092">
            <path d="M34.8946789,41.8348624 C34.8946789,47.1192661 30.2620183,51.1001835 27.7078899,51.1001835 C25.3122936,51.1001835 20.5122936,47.1280734 20.5122936,41.8348624 C20.5122936,36.5416514 23.7357798,33.2036697 27.7078899,33.2036697 C31.68,33.2036697 34.8946789,36.532844 34.8946789,41.8348624 Z" id="Shape" stroke="#FFFFFF" stroke-linecap="round" stroke-linejoin="round"></path>
            <path d="M21.1376147,52.8440367 L18.7508257,55.266055 C17.2089434,57.0119332 16.3571349,59.2604571 16.3552294,61.5897248 L16.3552294,72.3611009" id="Shape" stroke="#FFFFFF" stroke-linecap="round" stroke-linejoin="round"></path>
            <path d="M33.9699083,52.8440367 L36.3566972,55.266055 C37.8985795,57.0119332 38.750388,59.2604571 38.7522936,61.5897248 L38.7522936,72.3611009" id="Shape" stroke="#FFFFFF" stroke-linecap="round" stroke-linejoin="round"></path>
            <polyline id="Shape" stroke="#FFFFFF" stroke-linecap="round" stroke-linejoin="round" points="27.7078899 27.84 27.7078899 22.493945 75.6550459 22.493945 75.6550459 58.4543119 44.6091743 58.4543119"></polyline>
            <polyline id="Shape" stroke="#FF9B02" stroke-linecap="round" stroke-linejoin="round" points="56.6223853 37.7658716 50.3163303 31.4510092 44.0014679 37.7746789"></polyline>
            <polyline id="Shape" stroke="#FF9B02" stroke-linecap="round" stroke-linejoin="round" points="70.1416514 46.0711927 59.2293578 35.1588991 56.6223853 37.7658716 64.9277064 46.0623853"></polyline>
            <polyline id="Shape" stroke="#FF9B02" stroke-linecap="round" stroke-linejoin="round" points="37.8451376 43.9310092 44.0014679 37.7746789 41.3856881 35.1588991 37.8451376 38.7082569"></polyline>
            <circle id="Oval" stroke="#FFFFFF" cx="47.7798165" cy="47.7798165" r="47.7798165"></circle>
        </g>
    </g>
</svg>