<?xml version="1.0" encoding="UTF-8"?>
<svg width="98px" height="98px" viewBox="0 0 98 98" version="1.1" xmlns="http://www.w3.org/2000/svg" xmlns:xlink="http://www.w3.org/1999/xlink">
    <!-- Generator: Sketch 48.2 (47327) - http://www.bohemiancoding.com/sketch -->
    <title>Icon_96x96_Documents</title>
    <desc>Created with Sketch.</desc>
    <defs></defs>
    <g id="icon/modality/documents-copy" stroke="none" stroke-width="1" fill="none" fill-rule="evenodd" transform="translate(1.000000, 1.000000)">
        <g id="Icon_96x96_Documents" stroke-width="1.32110092">
            <circle id="Oval" stroke="#FFFFFF" cx="47.7798165" cy="47.7798165" r="47.7798165"></circle>
            <rect id="Rectangle-path" stroke="#FFFFFF" stroke-linecap="round" stroke-linejoin="round" x="24.8455046" y="26.1137615" width="39.1222018" height="51.2587156"></rect>
            <polyline id="Shape" stroke="#FFFFFF" stroke-linecap="round" stroke-linejoin="round" points="32.1115596 22.4499083 32.1115596 19.0678899 71.2249541 19.0678899 71.2249541 70.3266055 67.8429358 70.3266055"></polyline>
            <rect id="Rectangle-path" stroke="#FF9B02" stroke-linecap="round" stroke-linejoin="round" x="30.306055" y="37.466422" width="8.44623853" height="12.7354128"></rect>
            <path d="M44.0366972,37.466422 L58.507156,37.466422" id="Shape" stroke="#FFFFFF" stroke-linecap="round" stroke-linejoin="round"></path>
            <path d="M44.0366972,43.8517431 L58.507156,43.8517431" id="Shape" stroke="#FFFFFF" stroke-linecap="round" stroke-linejoin="round"></path>
            <path d="M44.0366972,50.2458716 L58.507156,50.2458716" id="Shape" stroke="#FFFFFF" stroke-linecap="round" stroke-linejoin="round"></path>
            <path d="M30.2091743,56.6311927 L58.507156,56.6311927" id="Shape" stroke="#FFFFFF" stroke-linecap="round" stroke-linejoin="round"></path>
            <path d="M30.2091743,63.0253211 L58.507156,63.0253211" id="Shape" stroke="#FFFFFF" stroke-linecap="round" stroke-linejoin="round"></path>
            <path d="M30.2091743,69.4106422 L58.507156,69.4106422" id="Shape" stroke="#FFFFFF" stroke-linecap="round" stroke-linejoin="round"></path>
        </g>
    </g>
</svg>