<?xml version="1.0" encoding="UTF-8"?>
<svg width="174px" height="167px" viewBox="0 0 174 167" version="1.1" xmlns="http://www.w3.org/2000/svg" xmlns:xlink="http://www.w3.org/1999/xlink">
    <!-- Generator: Sketch 50.2 (55047) - http://www.bohemiancoding.com/sketch -->
    <title>icon/big-data</title>
    <desc>Created with Sketch.</desc>
    <defs></defs>
    <g id="AWS-Worksheets-Certification" stroke="none" stroke-width="1" fill="none" fill-rule="evenodd">
        <g id="modality-worksheet-1-copy-14" transform="translate(-333.000000, -664.000000)">
            <g id="icon/big-data" transform="translate(335.000000, 666.000000)">
                <g>
                    <path d="M150.51659,69.9959615 C150.512263,108.613691 119.213401,139.916443 80.6076811,139.913557 C42.001961,139.910672 10.7077751,108.603243 10.7092171,69.9855131 C10.7106591,31.3677832 42.007183,0.0626925502 80.6129032,0.0626923077 C99.2012969,-0.0934809338 117.073622,7.22456065 130.217328,20.3738292 C143.361035,33.5230978 150.674798,51.4018029 150.51659,69.9959615 Z" id="Shape" stroke="#444444" stroke-width="4" stroke-linejoin="round"></path>
                    <path d="M117.088479,50.6397115 L151.660369,26.4326442" id="Shape" stroke="#444444" stroke-width="4" stroke-linejoin="round"></path>
                    <path d="M53.1073733,26.4326442 L94.0718894,51.3763462" id="Shape" stroke="#444444" stroke-width="4" stroke-linejoin="round"></path>
                    <ellipse id="Oval" fill="#FBAF34" fill-rule="nonzero" cx="52.6921659" cy="26.4326442" rx="13.7488479" ry="13.753125"></ellipse>
                    <ellipse id="Oval" stroke="#444444" stroke-width="4" stroke-linejoin="round" cx="53.1073733" cy="26.4326442" rx="13.7488479" ry="13.753125"></ellipse>
                    <path d="M170,141.057692 L146.826728,162.631683 L116.485253,129.984663 C125.654083,124.506145 133.447086,117.000231 139.26682,108.042356 L170,141.057692 Z" id="Shape" stroke="#444444" stroke-width="4" stroke-linejoin="round"></path>
                    <ellipse id="Oval" stroke="#444444" stroke-width="4" stroke-linejoin="round" cx="105.823041" cy="58.5311058" rx="13.7488479" ry="13.753125"></ellipse>
                    <ellipse id="Oval" fill="#FBAF34" fill-rule="nonzero" cx="151.660369" cy="26.4326442" rx="13.7488479" ry="13.753125"></ellipse>
                    <polyline id="Shape" stroke="#444444" stroke-width="4" stroke-linejoin="round" points="24.9751152 71.5946154 66.8562212 104.382692 135.623963 97.5100481"></polyline>
                    <ellipse id="Oval" fill="#999999" fill-rule="nonzero" cx="135.240092" cy="97.1809135" rx="13.7488479" ry="13.753125"></ellipse>
                    <ellipse id="Oval" stroke="#444444" stroke-width="4" stroke-linejoin="round" cx="151.660369" cy="26.4326442" rx="13.7488479" ry="13.753125"></ellipse>
                    <ellipse id="Oval" stroke="#444444" stroke-width="4" stroke-linejoin="round" cx="135.616129" cy="97.5100481" rx="13.7488479" ry="13.753125"></ellipse>
                    <ellipse id="Oval" fill="#FBAF34" fill-rule="nonzero" cx="67.0834101" cy="104.735337" rx="13.7488479" ry="13.753125"></ellipse>
                    <ellipse id="Oval" stroke="#444444" stroke-width="4" stroke-linejoin="round" cx="66.8562212" cy="104.382692" rx="13.7488479" ry="13.753125"></ellipse>
                    <ellipse id="Oval" fill="#CCCCCC" fill-rule="nonzero" cx="14.140553" cy="63.1154808" rx="13.7488479" ry="13.753125"></ellipse>
                    <ellipse id="Oval" stroke="#444444" stroke-width="4" stroke-linejoin="round" cx="14.140553" cy="63.1154808" rx="13.7488479" ry="13.753125"></ellipse>
                </g>
            </g>
        </g>
    </g>
</svg>