<?xml version="1.0" encoding="UTF-8"?>
<svg width="17px" height="16px" viewBox="0 0 17 16" version="1.1" xmlns="http://www.w3.org/2000/svg" xmlns:xlink="http://www.w3.org/1999/xlink">
    <!-- Generator: Sketch 50.2 (55047) - http://www.bohemiancoding.com/sketch -->
    <title>Line</title>
    <desc>Created with Sketch.</desc>
    <defs></defs>
    <g id="AWS-Worksheets-Certification" stroke="none" stroke-width="1" fill="none" fill-rule="evenodd" stroke-linecap="square">
        <g id="modality-worksheet-1" transform="translate(-238.000000, -418.000000)" stroke="#232F3E" stroke-width="2">
            <g id="module/desktop/quiz-question-screen-dark">
                <g id="Group" transform="translate(232.000000, 290.000000)">
                    <g id="form-checklist-deselected-LP-Copy" transform="translate(0.000000, 122.000000)">
                        <polyline id="Line" points="8.16666667 16.3333333 12.8333333 19.8333333 21 8.16666667"></polyline>
                    </g>
                </g>
            </g>
        </g>
    </g>
</svg>