<?xml version="1.0" encoding="UTF-8"?>
<svg width="98px" height="98px" viewBox="0 0 98 98" version="1.1" xmlns="http://www.w3.org/2000/svg" xmlns:xlink="http://www.w3.org/1999/xlink">
    <!-- Generator: Sketch 48.2 (47327) - http://www.bohemiancoding.com/sketch -->
    <title>Icon_96x96_Labs</title>
    <desc>Created with Sketch.</desc>
    <defs></defs>
    <g id="icon/modality/labs-copy" stroke="none" stroke-width="1" fill="none" fill-rule="evenodd" transform="translate(1.000000, 1.000000)">
        <g id="Icon_96x96_Labs" stroke-width="1.32110092">
            <circle id="Oval" stroke="#FFFFFF" cx="47.7798165" cy="47.7798165" r="47.7798165"></circle>
            <path d="M30.9401835,72.5108257 L64.6370642,72.5108257 C65.2134138,72.5182099 65.7569144,72.2431457 66.0922704,71.7743496 C66.4276264,71.3055536 66.5124063,70.7023409 66.3192661,70.1592661 L54.72,36.0044037 C54.6571838,35.8200161 54.6244714,35.6267158 54.6231193,35.4319266 L54.6231193,29.1522936 C54.6231193,28.1794617 55.4117553,27.3908257 56.3845872,27.3908257 L57.4238532,27.3908257 C58.3966851,27.3908257 59.1853211,26.6021897 59.1853211,25.6293578 L59.1853211,22.8990826 C59.1853211,21.9262507 58.3966851,21.1376147 57.4238532,21.1376147 L38.1533945,21.1376147 C37.1805626,21.1376147 36.3919266,21.9262507 36.3919266,22.8990826 L36.3919266,25.6293578 C36.3919266,26.6021897 37.1805626,27.3908257 38.1533945,27.3908257 L39.1662385,27.3908257 C40.1390704,27.3908257 40.9277064,28.1794617 40.9277064,29.1522936 L40.9277064,35.4319266 C40.9263543,35.6267158 40.8936419,35.8200161 40.8308257,36.0044037 L29.2579817,70.1592661 C29.0648414,70.7023409 29.1496213,71.3055536 29.4849773,71.7743496 C29.8203333,72.2431457 30.3638339,72.5182099 30.9401835,72.5108257 Z" id="Shape" stroke="#FFFFFF" stroke-linecap="round" stroke-linejoin="round"></path>
            <path d="M34.0579817,56.0322936 L39.6946789,52.0161468 C42.0278665,50.3496767 45.2238519,50.6141463 47.2513761,52.6414679 C49.1923934,54.5862286 52.2232792,54.9229936 54.5438532,53.4517431 L59.5640367,50.2722936" id="Shape" stroke="#FFFFFF" stroke-linecap="round" stroke-linejoin="round"></path>
            <path d="M13.1317431,46.7933945 L30.2708257,46.7933945" id="Shape" stroke="#FF9B02" stroke-linecap="round" stroke-linejoin="round"></path>
            <path d="M65.0598165,46.7933945 L82.2693578,46.7933945" id="Shape" stroke="#FF9B02" stroke-linecap="round" stroke-linejoin="round"></path>
        </g>
    </g>
</svg>