<?xml version="1.0" encoding="UTF-8"?>
<svg width="224px" height="213px" viewBox="0 0 224 213" version="1.1" xmlns="http://www.w3.org/2000/svg" xmlns:xlink="http://www.w3.org/1999/xlink">
    <!-- Generator: Sketch 49.3 (51167) - http://www.bohemiancoding.com/sketch -->
    <title>icon/devops-engineer-pro</title>
    <desc>Created with Sketch.</desc>
    <defs></defs>
    <g id="icon/devops-engineer-pro" stroke="none" stroke-width="1" fill="none" fill-rule="evenodd">
        <g>
            <polyline id="Shape" stroke="#444444" stroke-width="3" stroke-linejoin="round" points="179.93 181.72 25 181.72 25 34.53 179.93 34.53 179.93 132.66"></polyline>
            <path d="M44.37,59.06 L90.85,59.06" id="Shape" stroke="#444444" stroke-width="3" stroke-linejoin="round"></path>
            <path d="M25,84.46 L179.93,84.46" id="Shape" stroke="#444444" stroke-width="3" stroke-linejoin="round"></path>
            <path d="M44.37,108.12 L90.85,108.12" id="Shape" stroke="#444444" stroke-width="3" stroke-linejoin="round"></path>
            <path d="M25,132.66 L179.93,132.66" id="Shape" stroke="#444444" stroke-width="3" stroke-linejoin="round"></path>
            <path d="M222,171.39 C223.386731,164.573143 223.386731,157.546857 222,150.73 L210.67,150.73 C209.751958,147.15887 208.334656,143.735127 206.46,140.56 L214.41,132.56 C210.599854,126.758211 205.637013,121.802178 199.83,118 L191.83,126 C188.645154,124.123469 185.211244,122.706139 181.63,121.79 L181.63,110.45 C174.815155,109.076793 167.794845,109.076793 160.98,110.45 L160.98,121.73 C157.405117,122.646263 153.977828,124.063639 150.8,125.94 L142.8,117.94 C136.983633,121.756588 132.008527,126.721485 128.18,132.53 L136.18,140.53 C134.313786,143.71644 132.906578,147.150297 132,150.73 L120.73,150.73 C119.356789,157.548212 119.356789,164.571788 120.73,171.39 L132,171.39 C132.924963,174.961974 134.348982,178.385677 136.23,181.56 L128.23,189.56 C132.066787,195.361767 137.040364,200.325138 142.85,204.15 L150.85,196.2 C154.019572,198.066807 157.436542,199.477359 161,200.39 L161,211.67 C167.814845,213.043207 174.835155,213.043207 181.65,211.67 L181.65,200.39 C185.231244,199.473861 188.665154,198.056531 191.85,196.18 L199.85,204.13 C205.655978,200.301724 210.617645,195.326445 214.43,189.51 L206.48,181.56 C208.354656,178.384873 209.771958,174.96113 210.69,171.39 L222,171.39 Z M188,163.1 C187.638216,166.12551 186.451649,168.993336 184.57,171.39 C183.734842,172.476858 182.759737,173.448601 181.67,174.28 C179.279991,176.153509 176.424109,177.339427 173.41,177.71 C172.723164,177.79408 172.031959,177.837489 171.34,177.84 C170.671383,177.835308 170.003598,177.791902 169.34,177.71 C166.317985,177.346442 163.453841,176.159967 161.06,174.28 C159.970263,173.448601 158.995158,172.476858 158.16,171.39 C156.290519,168.993838 155.105192,166.135921 154.73,163.12 C154.556711,161.748787 154.556711,160.361213 154.73,158.99 C155.10548,155.977188 156.290872,153.122569 158.16,150.73 C158.992464,149.640776 159.967907,148.668696 161.06,147.84 C163.455341,145.960887 166.318287,144.771451 169.34,144.4 C170.00421,144.326222 170.671734,144.286171 171.34,144.28 C172.031611,144.284182 172.722539,144.324235 173.41,144.4 C176.42368,144.778888 179.278264,145.967722 181.67,147.84 C182.762093,148.668696 183.737536,149.640776 184.57,150.73 C186.448287,153.121018 187.634669,155.98148 188,159 C188.173346,160.354476 188.173346,161.725524 188,163.08 L188,163.1 Z" id="Shape" fill="#FBAF34" fill-rule="nonzero"></path>
            <path d="M44.37,157.19 L90.85,157.19" id="Shape" stroke="#444444" stroke-width="3" stroke-linejoin="round"></path>
            <path d="M222,171.59 C223.373207,164.775155 223.373207,157.754845 222,150.94 L210.68,150.94 C209.763737,147.365117 208.346361,143.937828 206.47,140.76 L214.47,132.81 C210.658745,126.992042 205.692731,122.019221 199.88,118.2 L191.88,126.2 C188.697798,124.325289 185.26745,122.908041 181.69,121.99 L181.69,110.66 C174.873143,109.273269 167.846857,109.273269 161.03,110.66 L161.03,121.94 C157.455117,122.856263 154.027828,124.273639 150.85,126.15 L142.9,118.15 C137.084659,121.960336 132.112281,126.922504 128.29,132.73 L136.29,140.73 C134.384033,143.913167 132.939622,147.350798 132,150.94 L120.75,150.94 C119.363259,157.753489 119.363259,164.776511 120.75,171.59 L132,171.59 C132.926584,175.166173 134.354039,178.593411 136.24,181.77 L128.24,189.77 C132.073006,195.571485 137.043269,200.534945 142.85,204.36 L150.8,196.36 C153.982959,198.245056 157.417145,199.669233 161,200.59 L161,211.88 C167.818212,213.253211 174.841788,213.253211 181.66,211.88 L181.66,200.59 C185.23745,199.671959 188.667798,198.254711 191.85,196.38 L199.85,204.38 C205.656373,200.54885 210.620785,195.574231 214.44,189.76 L206.44,181.81 C208.316361,178.632172 209.733737,175.204883 210.65,171.63 L222,171.59 Z M188.17,161.27 C188.165308,161.938617 188.121902,162.606402 188.04,163.27 C187.676442,166.292015 186.489967,169.156159 184.61,171.55 C183.778601,172.639737 182.806858,173.614842 181.72,174.45 C179.323838,176.319481 176.465921,177.504808 173.45,177.88 C172.766483,177.963757 172.078624,178.007166 171.39,178.01 C170.721361,178.005921 170.053541,177.962513 169.39,177.88 C166.36449,177.518216 163.496664,176.331649 161.1,174.45 C160.008652,173.619962 159.036263,172.644209 158.21,171.55 C156.333784,169.16057 155.144478,166.304851 154.77,163.29 C154.596711,161.918787 154.596711,160.531213 154.77,159.16 C155.144478,156.145149 156.333784,153.28943 158.21,150.9 C159.033565,149.806363 160.006363,148.833565 161.1,148.01 C163.493449,146.121162 166.362421,144.930659 169.39,144.57 C170.053541,144.487487 170.721361,144.444079 171.39,144.44 C172.078624,144.442834 172.766483,144.486243 173.45,144.57 C176.467956,144.944197 179.32697,146.133436 181.72,148.01 C182.808964,148.838928 183.781072,149.811036 184.61,150.9 C186.491649,153.296664 187.678216,156.16449 188.04,159.19 C188.115682,159.880648 188.149077,160.575277 188.14,161.27 L188.17,161.27 Z" id="Shape" stroke="#444444" stroke-width="3" stroke-linejoin="round"></path>
            <path d="M188.14,161.27 C188.135308,161.938617 188.091902,162.606402 188.01,163.27 C187.646442,166.292015 186.459967,169.156159 184.58,171.55 C183.748601,172.639737 182.776858,173.614842 181.69,174.45 C179.293838,176.319481 176.435921,177.504808 173.42,177.88 C172.736483,177.963757 172.048624,178.007166 171.36,178.01 C170.691361,178.005921 170.023541,177.962513 169.36,177.88 C166.33449,177.518216 163.466664,176.331649 161.07,174.45 C159.978652,173.619962 159.006263,172.644209 158.18,171.55 C156.303784,169.16057 155.114478,166.304851 154.74,163.29 C154.566711,161.918787 154.566711,160.531213 154.74,159.16 C155.114478,156.145149 156.303784,153.28943 158.18,150.9 C159.003565,149.806363 159.976363,148.833565 161.07,148.01 C163.463449,146.121162 166.332421,144.930659 169.36,144.57 C170.023541,144.487487 170.691361,144.444079 171.36,144.44 C172.048624,144.442834 172.736483,144.486243 173.42,144.57 C176.437956,144.944197 179.29697,146.133436 181.69,148.01 C182.778964,148.838928 183.751072,149.811036 184.58,150.9 C186.461649,153.296664 187.648216,156.16449 188.01,159.19 C188.095706,159.880034 188.139121,160.574664 188.14,161.27 Z" id="Shape" stroke="#444444" stroke-width="3" stroke-linejoin="round"></path>
            <polygon id="Shape" fill="#FFFFFF" fill-rule="nonzero" points="41.63 79.39 48.2 80.48 55.73 76.37 62.44 76.37 65.73 69.53 72.31 67.33 73.4 60.76 78.88 55.28 78.88 46.52 82.17 41.04 77.78 34.47 78.88 26.8 74.5 22.41 72.31 15.84 65.73 12.55 62.44 7.07 54.77 5.98 49.3 1.6 41.63 3.79 35.05 1.6 28.48 5.98 20.81 7.07 17.52 12.55 10.95 15.84 8.76 22.41 4.38 27.89 4.38 34.47 1.09 41.04 4.38 47.61 3.28 54.19 8.76 60.76 10.95 67.33 16.43 69.53 20.9 75.55 28.48 76.1 33.96 80.48"></polygon>
            <circle id="Oval" fill="#999999" fill-rule="nonzero" cx="41.63" cy="41.59" r="26.84"></circle>
            <path d="M60.38,19.34 C50.6057961,11.06025 36.5571426,10.1740791 25.82,17.16 C24.8058946,17.8231846 23.830938,18.5443854 22.9,19.32 C19.8890816,21.8692005 17.4261548,25.0022883 15.66,28.53 C13.6365325,32.5640906 12.5884123,37.0168888 12.6,41.53 C12.6,42.4766667 12.64,43.4066667 12.72,44.32 C13.1025067,48.3394701 14.3256153,52.2336569 16.31,55.75 C16.8513844,56.7111177 17.4490929,57.6394024 18.1,58.53 C23.550683,66.0914566 32.303757,70.571982 41.625,70.571982 C50.946243,70.571982 59.699317,66.0914566 65.15,58.53 C65.8190591,57.6254347 66.4367015,56.6839473 67,55.71 C68.9756881,52.1898929 70.1982063,48.2975858 70.59,44.28 C70.67,43.3666667 70.71,42.4366667 70.71,41.49 C70.6816331,32.9490332 66.9050516,24.8511359 60.38,19.34 Z M65.82,50.59 C65.2006579,52.2420315 64.4025847,53.8214117 63.44,55.3 C58.7200468,62.7953281 50.4826465,67.3426722 41.625,67.3426722 C32.7673535,67.3426722 24.5299532,62.7953281 19.81,55.3 C18.8514171,53.8261685 18.0535287,52.253859 17.43,50.61 C16.3394982,47.6930066 15.7806623,44.6041682 15.78,41.49 C15.7682132,35.2305585 18.0483639,29.1833568 22.19,24.49 C23.2926889,23.2060502 24.5222647,22.0367806 25.86,21 C36.6507734,12.6303432 52.0996038,14.1445042 61.06,24.45 C67.33919,31.6021503 69.1689511,41.6312398 65.82,50.54 L65.82,50.59 Z" id="Shape" fill="#444444" fill-rule="nonzero"></path>
            <path d="M21.88,77.92 C23.0602847,78.2284343 24.2856656,78.3266002 25.5,78.21 C26.4038678,78.1278156 27.3150404,78.1885605 28.2,78.39 C29.0016796,78.7978991 29.7259072,79.342762 30.34,80 C31.429907,81.1967232 32.8437902,82.0513062 34.41,82.46 C35.9991475,82.5852729 37.591135,82.2557766 39,81.51 C39.8309314,81.1098293 40.7234855,80.8528819 41.64,80.75 C42.5559974,80.8554762 43.4481272,81.1123014 44.28,81.51 C45.4536893,82.0823828 46.7271493,82.4219722 48.03,82.51 C48.3053813,82.5121372 48.5802246,82.4853232 48.85,82.43 C50.4151683,82.0355849 51.8302572,81.1907038 52.92,80 C53.5339521,79.3575264 54.2546187,78.8263309 55.05,78.43 C55.9383637,78.228663 56.8528118,78.1679247 57.76,78.25 C58.9743409,78.3657667 60.1995762,78.2676125 61.38,77.96 C62.7335496,77.5003198 63.8580495,76.5369743 64.52,75.27 C64.82,74.8 65.08,74.27 65.33,73.84 C65.6887303,73.0162032 66.1935244,72.2640938 66.82,71.62 C67.5725803,71.1203867 68.4043421,70.7518418 69.28,70.53 C70.8436903,70.1792718 72.2757982,69.3921326 73.41,68.26 C73.44978,68.218292 73.4834481,68.1711566 73.51,68.12 C73.9348776,67.582122 74.2446241,66.9626289 74.42,66.3 C74.625507,65.6783353 74.7728068,65.0389203 74.86,64.39 C74.86,64.18 74.92,64 74.94,63.8 C75.0115385,63.1232525 75.1420341,62.4540442 75.33,61.8 C75.385599,61.5910825 75.4661803,61.3896292 75.57,61.2 C76.1089237,60.4885557 76.7609156,59.8703458 77.5,59.37 C78.8612249,58.4927009 79.9463731,57.248074 80.63,55.78 C80.63,55.78 80.63,55.78 80.63,55.72 C80.9798522,54.4469316 80.9798522,53.1030684 80.63,51.83 C80.63,51.58 80.55,51.34 80.49,51.1 C80.240175,50.2231024 80.1420957,49.30995 80.2,48.4 C80.4767082,47.5325931 80.9031461,46.7203304 81.46,46 C82.4497429,44.7017574 83.0466455,43.1470345 83.18,41.52 C83.054729,39.878951 82.4573837,38.3091831 81.46,37 C80.9422793,36.2833845 80.5469213,35.4859101 80.29,34.64 C80.2320957,33.73005 80.330175,32.8168976 80.58,31.94 C81.053445,30.4137135 81.0880975,28.7850428 80.68,27.24 C79.9905153,25.7810599 78.9062397,24.5443622 77.55,23.67 C76.8120297,23.1753754 76.1657287,22.5561446 75.64,21.84 C75.2767575,21.0242757 75.0601111,20.1509197 75,19.26 C74.92,18.69 74.82,18.09 74.68,17.48 C74.505202,16.500132 74.0893818,15.5791417 73.47,14.8 C73.3201674,14.6301457 73.1598543,14.4698326 72.99,14.32 C71.9112734,13.4734538 70.6682946,12.8604779 69.34,12.52 C68.4612798,12.3070984 67.628015,11.9378876 66.88,11.43 C66.5929742,11.1889249 66.3523642,10.8974818 66.17,10.57 C65.89,10.16 65.65,9.68 65.39,9.2 C64.9351929,8.24822696 64.3568755,7.360577 63.67,6.56 C63.3197301,6.13781333 62.8963092,5.78213979 62.42,5.51 C60.9671249,4.84202053 59.3576702,4.58935345 57.77,4.78 C56.8631662,4.88233482 55.945333,4.82137173 55.06,4.6 C54.2778248,4.20026846 53.5653226,3.67686636 52.95,3.05 C51.8462335,1.85117228 50.4242352,0.991036744 48.85,0.57 C47.2718569,0.445425644 45.6900477,0.76040296 44.28,1.48 C43.4515902,1.88674104 42.5578723,2.14402349 41.64,2.24 C40.7216396,2.14654048 39.8274849,1.8891323 39,1.48 C37.5868218,0.759078865 36.0014372,0.444078866 34.42,0.57 C32.8554738,0.993676248 31.4438264,1.85384467 30.35,3.05 C29.7215541,3.67916388 28.9955199,4.20258386 28.2,4.6 C27.3180816,4.82146074 26.4035112,4.88243209 25.5,4.78 C23.9091098,4.59114052 22.2969264,4.84369286 20.84,5.51 C20.3723317,5.77403804 19.950257,6.11169782 19.59,6.51 C18.9051573,7.31735285 18.3301661,8.21178358 17.88,9.17 C17.62,9.65 17.37,10.17 17.11,10.54 C16.9177256,10.8577754 16.682129,11.1472226 16.41,11.4 C15.6730873,11.9022042 14.8590129,12.2805292 14,12.52 C12.6639498,12.855928 11.4135306,13.4692126 10.33,14.32 C10.17,14.46 10.01,14.62 9.84,14.8 C9.22759522,15.5833795 8.81259089,16.5025627 8.63,17.48 C8.49,18.09 8.41,18.69 8.33,19.26 C8.26439633,20.1629332 8.04807233,21.0485095 7.69,21.88 C7.13207784,22.5955253 6.45967427,23.2138663 5.7,23.71 C4.34425219,24.5820842 3.26266207,25.8196729 2.58,27.28 C2.16196208,28.8238438 2.19667464,30.4553341 2.68,31.98 C2.9509366,32.8528466 3.05939951,33.7680024 3,34.68 C2.730536,35.5160988 2.32141784,36.3005237 1.79,37 C0.816319012,38.2949261 0.224029598,39.836264 0.08,41.45 C0.209381786,43.0976071 0.802206026,44.6750049 1.79,46 C2.32596574,46.7002617 2.73545645,47.4887851 3,48.33 C3.05440276,49.2319912 2.94600798,50.1364101 2.68,51 C2.62,51.24 2.58,51.48 2.54,51.73 C2.17996846,53.0016751 2.17996846,54.3483249 2.54,55.62 C2.54,55.62 2.54,55.62 2.54,55.68 C3.22275303,57.1657938 4.32004268,58.4228155 5.7,59.3 C6.44631114,59.7948829 7.10244472,60.413813 7.64,61.13 C7.74381967,61.3196292 7.82440097,61.5210825 7.88,61.73 C8.06690589,62.3848238 8.20067322,63.0536604 8.28,63.73 C8.28,63.93 8.34,64.11 8.36,64.32 C8.44858789,64.9677669 8.59244605,65.6067647 8.79,66.23 C8.96237073,66.8918342 9.26868516,67.51127 9.69,68.05 C9.71655188,68.1011566 9.75022,68.148292 9.79,68.19 C10.9279395,69.3224484 12.3633212,70.1094814 13.93,70.46 C14.8090592,70.6900358 15.6461081,71.0579323 16.41,71.55 C17.0165504,72.2058549 17.5129672,72.9555456 17.88,73.77 C18.12,74.23 18.38,74.72 18.68,75.2 C19.3379344,76.4663282 20.459149,77.4299279 21.81,77.89 L21.88,77.92 Z M78.76,44.28 C77.9954853,45.3203496 77.4479671,46.5038051 77.15,47.76 C77.15,47.95 77.09,48.11 77.07,48.29 C77.0424711,49.4332244 77.1771442,50.5745791 77.47,51.68 C77.6007539,52.2711032 77.7008873,52.8685659 77.77,53.47 C77.817096,53.8482844 77.7899215,54.2321239 77.69,54.6 C77.1728478,55.4743073 76.4568021,56.2143355 75.6,56.76 C74.7381512,57.3675379 73.9641951,58.0910186 73.3,58.91 C73.1375545,59.0969296 72.9966675,59.3015512 72.88,59.52 C72.4148129,60.3554241 72.1127786,61.2717079 71.99,62.22 C71.93,62.58 71.87,62.92 71.83,63.29 C71.7901966,64.296672 71.5052851,65.2784153 71,66.15 C70.2311914,66.8053153 69.309369,67.2559076 68.32,67.46 C67.0470155,67.7848343 65.8485167,68.3518295 64.79,69.13 C63.8427439,70.034036 63.0758195,71.1097663 62.53,72.3 C62.1633566,73.237875 61.5687763,74.0696002 60.8,74.72 C59.8583323,75.054739 58.8498699,75.1576433 57.86,75.02 C56.5608833,74.9022918 55.2512242,75.031222 54,75.4 C52.8033933,75.9183238 51.7197174,76.6656865 50.81,77.6 C50.1374959,78.3570167 49.2843414,78.93152 48.33,79.27 C47.3400827,79.2745223 46.3644257,79.0340434 45.49,78.57 C44.2913335,77.988541 42.9899228,77.6487471 41.66,77.57 C40.3300772,77.6487471 39.0286665,77.988541 37.83,78.57 C36.9471717,79.0212788 35.9714414,79.2609319 34.98,79.27 C34.0289205,78.9250748 33.1772497,78.3515707 32.5,77.6 C31.5992877,76.659627 30.5175746,75.911272 29.32,75.4 C28.0444593,75.0152898 26.7068321,74.8794901 25.38,75 C24.3934586,75.1392009 23.3878616,75.0362387 22.45,74.7 C21.671217,74.0626363 21.0687263,73.2363634 20.7,72.3 C20.1616149,71.1054797 19.3937322,70.0284053 18.44,69.13 C17.3861601,68.344021 16.1860554,67.7762661 14.91,67.46 C13.9242877,67.2452941 13.0049371,66.79591 12.23,66.15 C11.7386815,65.2815029 11.4642442,64.3072504 11.43,63.31 C11.43,62.94 11.33,62.6 11.27,62.24 C11.1357343,61.2970551 10.8415096,60.3839441 10.4,59.54 C10.2648627,59.3221788 10.1179791,59.1118682 9.96,58.91 C9.2858286,58.1062253 8.51307711,57.3905902 7.66,56.78 C6.79880283,56.2429736 6.08415772,55.5008422 5.58,54.62 C5.46086922,54.2559003 5.42666233,53.8693624 5.48,53.49 C5.54092557,52.8874387 5.64113883,52.2894995 5.78,51.7 C6.07609558,50.5950368 6.2141342,49.4536931 6.19,48.31 C6.19,48.13 6.12,47.97 6.1,47.78 C5.80478384,46.5264602 5.26440262,45.3437391 4.51,44.3 C3.8712846,43.4863117 3.44206025,42.5282829 3.26,41.51 C3.44516264,40.5017689 3.8743189,39.5541919 4.51,38.75 C5.26489137,37.688144 5.80501211,36.489008 6.1,35.22 C6.26019391,33.908464 6.15130986,32.578037 5.78,31.31 C5.47685264,30.3605381 5.40822891,29.3517693 5.58,28.37 C6.08842972,27.4977075 6.80251486,26.7630237 7.66,26.23 C8.74751418,25.501035 9.67896335,24.5627869 10.4,23.47 C10.6206418,23.0651233 10.8014886,22.6397982 10.94,22.2 C11.1609272,21.3789955 11.3246533,20.5436583 11.43,19.7 C11.4928596,18.8030767 11.7093415,17.923619 12.07,17.1 C12.125276,17.0101563 12.1853635,16.9233633 12.25,16.84 C13.0190282,16.2007958 13.931897,15.7580888 14.91,15.55 C16.1731034,15.2199046 17.3634905,14.6569295 18.42,13.89 C19.2820994,13.0994036 19.9818152,12.1483336 20.48,11.09 L20.68,10.71 C21.0567217,9.77239778 21.6575989,8.94147044 22.43,8.29 C23.3678616,7.9537613 24.3734586,7.85079915 25.36,7.99 C26.6749923,8.12240537 28.0031858,7.99671954 29.27,7.62 C30.4630821,7.10510057 31.5435032,6.36103702 32.45,5.43 C33.1302915,4.66572694 33.9891575,4.08169802 34.95,3.73 C35.9376161,3.7473845 36.9072042,3.99749028 37.78,4.46 C38.9819714,5.03245351 40.2815966,5.37178124 41.61,5.46 C42.9384034,5.37178124 44.2380286,5.03245351 45.44,4.46 C46.3163441,3.99738 47.2891941,3.74731644 48.28,3.73 C49.2395206,4.0842701 50.0978025,4.66790179 50.78,5.43 C51.7012415,6.35677213 52.795194,7.09400099 54,7.6 C55.2668142,7.97671954 56.5950077,8.10240537 57.91,7.97 C58.9000304,7.84257542 59.9061112,7.94523674 60.85,8.27 C61.6095803,8.92882283 62.2024111,9.75810067 62.58,10.69 C62.6452414,10.8295849 62.7221828,10.9633961 62.81,11.09 C63.2842602,12.1409682 63.9643148,13.0862441 64.81,13.87 C65.8665095,14.6369295 67.0568966,15.1999046 68.32,15.53 C69.3074379,15.7397211 70.2279363,16.1896662 71,16.84 C71.0646365,16.9233633 71.124724,17.0101563 71.18,17.1 C71.5277105,17.9273925 71.7404139,18.8052159 71.81,19.7 C71.9071856,20.5391684 72.0744361,21.3687305 72.31,22.18 C72.4301381,22.6342825 72.6153916,23.0687862 72.86,23.47 C73.5766183,24.5596967 74.5008804,25.4975509 75.58,26.23 C76.4330966,26.7717248 77.1485915,27.5043368 77.67,28.37 C77.8283331,29.3536882 77.7529687,30.360831 77.45,31.31 C77.0835799,32.5789385 76.9747774,33.9083695 77.13,35.22 C77.4298177,36.4847684 77.976998,37.6776893 78.74,38.73 C79.3778751,39.5340433 79.810336,40.4813386 80,41.49 C79.8189484,42.5067693 79.3933921,43.4642709 78.76,44.28 Z" id="Shape" fill="#444444" fill-rule="nonzero"></path>
            <text id="PRO" fill="#444444" font-family="AmazonEmber-Regular, Amazon Ember" font-size="18.73" font-weight="normal">
                <tspan x="22.82" y="47.77">PRO</tspan>
            </text>
        </g>
    </g>
</svg>