<?xml version="1.0" encoding="UTF-8"?>
<svg width="98px" height="98px" viewBox="0 0 98 98" version="1.1" xmlns="http://www.w3.org/2000/svg" xmlns:xlink="http://www.w3.org/1999/xlink">
    <!-- Generator: Sketch 48.2 (47327) - http://www.bohemiancoding.com/sketch -->
    <title>Icon_96x96_Digital Training</title>
    <desc>Created with Sketch.</desc>
    <defs></defs>
    <g id="icon/modality/digital-training-copy" stroke="none" stroke-width="1" fill="none" fill-rule="evenodd" transform="translate(1.000000, 1.000000)">
        <g id="Icon_96x96_Digital-Training" stroke-width="1.32110092">
            <circle id="Oval" stroke="#FFFFFF" cx="47.7798165" cy="47.7798165" r="47.7798165"></circle>
            <path d="M38.2238532,77.2227523 L58.0227523,77.2227523" id="Shape" stroke="#FFFFFF" stroke-linecap="round" stroke-linejoin="round"></path>
            <rect id="Rectangle-path" stroke="#FFFFFF" stroke-linecap="round" stroke-linejoin="round" x="18.2047706" y="26.6245872" width="59.1853211" height="40.2495413"></rect>
            <path d="M42.9622018,67.746055 L42.9622018,77.1082569" id="Shape" stroke="#FFFFFF" stroke-linecap="round" stroke-linejoin="round"></path>
            <path d="M53.5045872,67.746055 L53.5045872,77.1082569" id="Shape" stroke="#FFFFFF" stroke-linecap="round" stroke-linejoin="round"></path>
            <path d="M18.0990826,34.3662385 L77.2844037,34.3662385" id="Shape" stroke="#FFFFFF" stroke-linejoin="round"></path>
            <path d="M41.3944954,40.9981651 L67.2792661,40.9981651" id="Shape" stroke="#FFFFFF" fill="#FFFFFF" fill-rule="nonzero" stroke-linecap="round" stroke-linejoin="round"></path>
            <path d="M41.3944954,45.8157798 L67.2792661,45.8157798" id="Shape" stroke="#FFFFFF" fill="#FFFFFF" fill-rule="nonzero" stroke-linecap="round" stroke-linejoin="round"></path>
            <path d="M28.2187156,55.4422018 L53.7247706,55.4422018" id="Shape" stroke="#FFFFFF" fill="#FFFFFF" fill-rule="nonzero" stroke-linecap="round" stroke-linejoin="round"></path>
            <path d="M28.2187156,50.6333945 L67.2792661,50.6333945" id="Shape" stroke="#FFFFFF" fill="#FFFFFF" fill-rule="nonzero" stroke-linecap="round" stroke-linejoin="round"></path>
            <path d="M28.2187156,60.2598165 L53.7247706,60.2598165" id="Shape" stroke="#FFFFFF" fill="#FFFFFF" fill-rule="nonzero" stroke-linecap="round" stroke-linejoin="round"></path>
            <rect id="Rectangle-path" stroke="#FF9B02" stroke-linecap="round" stroke-linejoin="round" x="28.1042202" y="40.3552294" width="8.18201835" height="5.44293578"></rect>
            <rect id="Rectangle-path" stroke="#FF9B02" stroke-linecap="round" stroke-linejoin="round" x="59.0972477" y="55.4862385" width="8.18201835" height="4.83522936"></rect>
        </g>
    </g>
</svg>